Time,CH A,CH B,
0.E+0,2.0476E-3,1.2E+0,
5.0025E-6,1.00476E-2,2.4E+0,
1.0005E-5,2.0476E-3,1.6E+0,
1.50075E-5,8.0476E-3,3.2E+0,
2.001E-5,2.0476E-3,2.E+0,
2.50125E-5,8.0476E-3,3.2E+0,
3.0015E-5,2.0476E-3,2.E+0,
3.50175E-5,8.0476E-3,3.6E+0,
4.002E-5,4.76E-5,2.4E+0,
4.50225E-5,8.0476E-3,4.E+0,
5.0025E-5,2.0476E-3,2.8E+0,
5.50275E-5,8.0476E-3,4.4E+0,
6.003E-5,2.0476E-3,3.2E+0,
6.50325E-5,8.0476E-3,4.4E+0,
7.0035E-5,4.76E-5,3.6E+0,
7.50375E-5,8.0476E-3,4.8E+0,
8.004E-5,2.0476E-3,3.6E+0,
8.50425E-5,8.0476E-3,5.2E+0,
9.0045E-5,2.0476E-3,4.4E+0,
9.50475E-5,8.0476E-3,5.2E+0,
1.0005E-4,2.0476E-3,4.4E+0,
1.05053E-4,1.00476E-2,5.6E+0,
1.10055E-4,2.0476E-3,4.8E+0,
1.15058E-4,1.00476E-2,6.E+0,
1.2006E-4,4.0476E-3,4.8E+0,
1.25063E-4,1.00476E-2,6.4E+0,
1.30065E-4,4.0476E-3,5.2E+0,
1.35068E-4,1.20476E-2,6.4E+0,
1.4007E-4,4.0476E-3,5.6E+0,
1.45073E-4,1.00476E-2,6.8E+0,
1.50075E-4,4.0476E-3,5.6E+0,
1.55078E-4,1.20476E-2,6.8E+0,
1.6008E-4,4.0476E-3,6.E+0,
1.65083E-4,1.00476E-2,7.2E+0,
1.70085E-4,6.0476E-3,6.E+0,
1.75088E-4,1.20476E-2,7.2E+0,
1.8009E-4,4.0476E-3,6.E+0,
1.85093E-4,1.20476E-2,7.2E+0,
1.90095E-4,8.0476E-3,6.4E+0,
1.95098E-4,1.40476E-2,7.6E+0,
2.001E-4,8.0476E-3,6.4E+0,
2.05103E-4,1.40476E-2,7.6E+0,
2.10105E-4,8.0476E-3,6.4E+0,
2.15108E-4,1.40476E-2,7.6E+0,
2.2011E-4,8.0476E-3,6.4E+0,
2.25113E-4,1.40476E-2,8.E+0,
2.30115E-4,8.0476E-3,6.8E+0,
2.35118E-4,1.40476E-2,8.E+0,
2.4012E-4,8.0476E-3,6.8E+0,
2.45123E-4,1.60476E-2,8.E+0,
2.50125E-4,8.0476E-3,6.8E+0,
2.55128E-4,1.40476E-2,8.E+0,
2.6013E-4,1.00476E-2,6.8E+0,
2.65133E-4,1.60476E-2,8.E+0,
2.70135E-4,1.00476E-2,6.4E+0,
2.75138E-4,1.60476E-2,8.E+0,
2.8014E-4,1.00476E-2,6.4E+0,
2.85143E-4,1.60476E-2,7.6E+0,
2.90145E-4,1.00476E-2,6.4E+0,
2.95148E-4,1.60476E-2,7.6E+0,
3.0015E-4,1.00476E-2,6.4E+0,
3.05153E-4,1.60476E-2,7.6E+0,
3.10155E-4,1.00476E-2,6.E+0,
3.15158E-4,1.60476E-2,7.2E+0,
3.2016E-4,8.0476E-3,6.E+0,
3.25163E-4,1.60476E-2,7.2E+0,
3.30165E-4,8.0476E-3,6.E+0,
3.35168E-4,1.60476E-2,7.2E+0,
3.4017E-4,8.0476E-3,6.E+0,
3.45173E-4,1.40476E-2,7.2E+0,
3.50175E-4,8.0476E-3,5.6E+0,
3.55178E-4,1.40476E-2,6.8E+0,
3.6018E-4,8.0476E-3,5.2E+0,
3.65183E-4,1.40476E-2,6.4E+0,
3.70185E-4,8.0476E-3,5.2E+0,
3.75188E-4,1.40476E-2,6.4E+0,
3.8019E-4,6.0476E-3,4.8E+0,
3.85193E-4,1.40476E-2,6.E+0,
3.90195E-4,6.0476E-3,4.4E+0,
3.95198E-4,1.20476E-2,6.E+0,
4.002E-4,6.0476E-3,4.E+0,
4.05203E-4,1.20476E-2,5.6E+0,
4.10205E-4,4.0476E-3,4.E+0,
4.15208E-4,1.20476E-2,5.2E+0,
4.2021E-4,4.0476E-3,3.6E+0,
4.25213E-4,1.00476E-2,4.8E+0,
4.30215E-4,4.0476E-3,3.2E+0,
4.35218E-4,1.00476E-2,4.4E+0,
4.4022E-4,2.0476E-3,2.8E+0,
4.45223E-4,1.00476E-2,4.4E+0,
4.50225E-4,2.0476E-3,2.4E+0,
4.55228E-4,8.0476E-3,4.E+0,
4.6023E-4,2.0476E-3,2.4E+0,
4.65233E-4,8.0476E-3,3.6E+0,
4.70235E-4,4.76E-5,2.E+0,
4.75238E-4,8.0476E-3,3.2E+0,
4.8024E-4,4.76E-5,1.6E+0,
4.85243E-4,8.0476E-3,3.2E+0,
4.90245E-4,2.0476E-3,1.2E+0,
4.95248E-4,8.0476E-3,2.8E+0,
5.0025E-4,4.76E-5,8.E-1,
5.05253E-4,8.0476E-3,2.4E+0,
5.10255E-4,4.76E-5,4.E-1,
5.15258E-4,6.0476E-3,1.6E+0,
5.2026E-4,4.76E-5,-1.11022E-15,
5.25263E-4,6.0476E-3,1.6E+0,
5.30265E-4,4.76E-5,-4.E-1,
5.35268E-4,6.0476E-3,1.2E+0,
5.4027E-4,4.76E-5,-8.E-1,
5.45273E-4,6.0476E-3,8.E-1,
5.50275E-4,4.76E-5,-8.E-1,
5.55278E-4,6.0476E-3,4.E-1,
5.6028E-4,4.76E-5,-1.2E+0,
5.65283E-4,6.0476E-3,-1.11022E-15,
5.70285E-4,4.76E-5,-1.6E+0,
5.75288E-4,6.0476E-3,-4.E-1,
5.8029E-4,-1.9524E-3,-2.E+0,
5.85293E-4,6.0476E-3,-4.E-1,
5.90295E-4,4.76E-5,-2.4E+0,
5.95298E-4,6.0476E-3,-1.2E+0,
6.003E-4,4.76E-5,-2.8E+0,
6.05303E-4,6.0476E-3,-1.6E+0,
6.10305E-4,4.76E-5,-2.8E+0,
6.15308E-4,8.0476E-3,-1.6E+0,
6.2031E-4,2.0476E-3,-3.6E+0,
6.25313E-4,1.00476E-2,-2.E+0,
6.30315E-4,2.0476E-3,-3.6E+0,
6.35318E-4,1.00476E-2,-2.4E+0,
6.4032E-4,4.0476E-3,-4.E+0,
6.45323E-4,1.00476E-2,-2.8E+0,
6.50325E-4,4.0476E-3,-4.4E+0,
6.55328E-4,1.00476E-2,-2.8E+0,
6.6033E-4,4.0476E-3,-4.8E+0,
6.65333E-4,1.00476E-2,-3.2E+0,
6.70335E-4,4.0476E-3,-4.8E+0,
6.75338E-4,1.20476E-2,-3.6E+0,
6.8034E-4,6.0476E-3,-5.2E+0,
6.85343E-4,1.20476E-2,-3.6E+0,
6.90345E-4,6.0476E-3,-5.6E+0,
6.95348E-4,1.40476E-2,-4.E+0,
7.0035E-4,8.0476E-3,-5.6E+0,
7.05353E-4,1.60476E-2,-4.4E+0,
7.10355E-4,1.00476E-2,-6.E+0,
7.15358E-4,1.60476E-2,-4.8E+0,
7.2036E-4,1.00476E-2,-6.E+0,
7.25363E-4,1.60476E-2,-4.8E+0,
7.30365E-4,1.00476E-2,-6.4E+0,
7.35368E-4,1.80476E-2,-5.2E+0,
7.4037E-4,1.20476E-2,-6.4E+0,
7.45373E-4,2.20476E-2,-5.2E+0,
7.50375E-4,1.20476E-2,-6.4E+0,
7.55378E-4,2.00476E-2,-5.2E+0,
7.6038E-4,1.40476E-2,-6.8E+0,
7.65383E-4,2.20476E-2,-5.6E+0,
7.70385E-4,1.60476E-2,-7.2E+0,
7.75388E-4,2.20476E-2,-6.E+0,
7.8039E-4,1.60476E-2,-7.2E+0,
7.85393E-4,2.40476E-2,-6.E+0,
7.90395E-4,1.60476E-2,-7.2E+0,
7.95398E-4,2.40476E-2,-6.E+0,
8.004E-4,1.80476E-2,-7.6E+0,
8.05403E-4,2.60476E-2,-6.E+0,
8.10405E-4,2.00476E-2,-7.6E+0,
8.15408E-4,2.60476E-2,-6.4E+0,
8.2041E-4,2.00476E-2,-7.6E+0,
8.25413E-4,2.80476E-2,-6.4E+0,
8.30415E-4,2.00476E-2,-7.6E+0,
8.35418E-4,2.80476E-2,-6.4E+0,
8.4042E-4,2.00476E-2,-7.6E+0,
8.45423E-4,2.80476E-2,-6.4E+0,
8.50425E-4,2.20476E-2,-7.6E+0,
8.55428E-4,2.80476E-2,-6.4E+0,
8.6043E-4,2.20476E-2,-7.6E+0,
8.65433E-4,2.80476E-2,-6.4E+0,
8.70435E-4,2.20476E-2,-7.6E+0,
8.75438E-4,2.80476E-2,-6.4E+0,
8.8044E-4,2.40476E-2,-7.6E+0,
8.85443E-4,3.00476E-2,-6.4E+0,
8.90445E-4,2.20476E-2,-8.E+0,
8.95448E-4,3.00476E-2,-6.4E+0,
9.0045E-4,2.40476E-2,-7.6E+0,
9.05453E-4,3.00476E-2,-6.4E+0,
9.10455E-4,2.40476E-2,-7.6E+0,
9.15458E-4,3.00476E-2,-6.4E+0,
9.2046E-4,2.40476E-2,-7.6E+0,
9.25463E-4,3.00476E-2,-6.4E+0,
9.30465E-4,2.20476E-2,-7.6E+0,
9.35468E-4,3.00476E-2,-6.4E+0,
9.4047E-4,2.40476E-2,-7.6E+0,
9.45473E-4,3.00476E-2,-6.4E+0,
9.50475E-4,2.40476E-2,-7.2E+0,
9.55478E-4,3.00476E-2,-6.E+0,
9.6048E-4,2.20476E-2,-7.2E+0,
9.65483E-4,3.00476E-2,-6.E+0,
9.70485E-4,2.40476E-2,-7.2E+0,
9.75488E-4,3.00476E-2,-6.E+0,
9.8049E-4,2.20476E-2,-7.2E+0,
9.85493E-4,3.00476E-2,-6.E+0,
9.90495E-4,2.20476E-2,-6.8E+0,
9.95498E-4,3.00476E-2,-5.6E+0,
1.0005E-3,2.20476E-2,-6.8E+0,
1.0055E-3,2.80476E-2,-5.6E+0,
1.01051E-3,2.00476E-2,-6.8E+0,
1.01551E-3,2.80476E-2,-5.2E+0,
1.02051E-3,2.00476E-2,-6.4E+0,
1.02551E-3,2.80476E-2,-4.8E+0,
1.03052E-3,2.00476E-2,-6.E+0,
1.03552E-3,2.60476E-2,-4.8E+0,
1.04052E-3,1.80476E-2,-6.E+0,
1.04552E-3,2.60476E-2,-4.8E+0,
1.05053E-3,1.80476E-2,-5.6E+0,
1.05553E-3,2.40476E-2,-4.4E+0,
1.06053E-3,1.60476E-2,-5.2E+0,
1.06553E-3,2.40476E-2,-4.E+0,
1.07054E-3,1.60476E-2,-5.2E+0,
1.07554E-3,2.20476E-2,-3.6E+0,
1.08054E-3,1.60476E-2,-4.8E+0,
1.08554E-3,2.20476E-2,-3.2E+0,
1.09055E-3,1.40476E-2,-4.4E+0,
1.09555E-3,2.00476E-2,-3.2E+0,
1.10055E-3,1.20476E-2,-4.E+0,
1.10555E-3,2.00476E-2,-2.8E+0,
1.11056E-3,1.00476E-2,-4.E+0,
1.11556E-3,1.80476E-2,-2.4E+0,
1.12056E-3,1.00476E-2,-3.6E+0,
1.12556E-3,1.60476E-2,-2.4E+0,
1.13057E-3,8.0476E-3,-3.2E+0,
1.13557E-3,1.60476E-2,-2.E+0,
1.14057E-3,8.0476E-3,-2.8E+0,
1.14557E-3,1.40476E-2,-1.2E+0,
1.15058E-3,6.0476E-3,-2.4E+0,
1.15558E-3,1.40476E-2,-1.2E+0,
1.16058E-3,4.0476E-3,-2.4E+0,
1.16558E-3,1.20476E-2,-8.E-1,
1.17059E-3,6.0476E-3,-2.E+0,
1.17559E-3,1.00476E-2,-4.E-1,
1.18059E-3,4.0476E-3,-1.6E+0,
1.18559E-3,1.00476E-2,-1.11022E-15,
1.1906E-3,2.0476E-3,-1.2E+0,
1.1956E-3,1.00476E-2,-1.11022E-15,
1.2006E-3,2.0476E-3,-8.E-1,
1.2056E-3,8.0476E-3,8.E-1,
1.21061E-3,4.76E-5,-4.E-1,
1.21561E-3,8.0476E-3,8.E-1,
1.22061E-3,4.76E-5,-1.11022E-15,
1.22561E-3,6.0476E-3,1.2E+0,
1.23062E-3,4.76E-5,4.E-1,
1.23562E-3,6.0476E-3,1.6E+0,
1.24062E-3,4.76E-5,4.E-1,
1.24562E-3,6.0476E-3,2.E+0,
1.25063E-3,4.76E-5,8.E-1,
1.25563E-3,6.0476E-3,2.4E+0,
1.26063E-3,-1.9524E-3,1.2E+0,
1.26563E-3,6.0476E-3,2.8E+0,
1.27064E-3,-1.9524E-3,1.6E+0,
1.27564E-3,6.0476E-3,3.2E+0,
1.28064E-3,-1.9524E-3,2.E+0,
1.28564E-3,6.0476E-3,3.6E+0,
1.29065E-3,-1.9524E-3,2.4E+0,
1.29565E-3,6.0476E-3,4.E+0,
1.30065E-3,-1.9524E-3,2.8E+0,
1.30565E-3,4.0476E-3,4.E+0,
1.31066E-3,-1.9524E-3,3.2E+0,
1.31566E-3,6.0476E-3,4.8E+0,
1.32066E-3,4.76E-5,3.6E+0,
1.32566E-3,6.0476E-3,4.8E+0,
1.33067E-3,-1.9524E-3,3.6E+0,
1.33567E-3,6.0476E-3,5.2E+0,
1.34067E-3,-1.9524E-3,4.E+0,
1.34567E-3,6.0476E-3,5.6E+0,
1.35068E-3,-1.9524E-3,4.4E+0,
1.35568E-3,6.0476E-3,5.6E+0,
1.36068E-3,4.76E-5,4.4E+0,
1.36568E-3,6.0476E-3,6.E+0,
1.37069E-3,4.76E-5,4.8E+0,
1.37569E-3,6.0476E-3,6.E+0,
1.38069E-3,4.76E-5,5.2E+0,
1.38569E-3,8.0476E-3,6.4E+0,
1.3907E-3,4.76E-5,5.2E+0,
1.3957E-3,8.0476E-3,6.4E+0,
1.4007E-3,2.0476E-3,5.6E+0,
1.4057E-3,8.0476E-3,6.8E+0,
1.41071E-3,2.0476E-3,5.6E+0,
1.41571E-3,1.00476E-2,7.2E+0,
1.42071E-3,4.0476E-3,6.E+0,
1.42571E-3,1.00476E-2,7.2E+0,
1.43072E-3,4.0476E-3,6.E+0,
1.43572E-3,1.20476E-2,7.2E+0,
1.44072E-3,6.0476E-3,6.4E+0,
1.44572E-3,1.40476E-2,7.6E+0,
1.45073E-3,6.0476E-3,6.4E+0,
1.45573E-3,1.20476E-2,7.6E+0,
1.46073E-3,6.0476E-3,6.4E+0,
1.46573E-3,1.40476E-2,7.6E+0,
1.47074E-3,6.0476E-3,6.4E+0,
1.47574E-3,1.40476E-2,8.E+0,
1.48074E-3,8.0476E-3,6.8E+0,
1.48574E-3,1.40476E-2,8.E+0,
1.49075E-3,8.0476E-3,6.8E+0,
1.49575E-3,1.60476E-2,8.E+0,
1.50075E-3,1.00476E-2,6.8E+0,
1.50575E-3,1.60476E-2,8.E+0,
1.51076E-3,1.00476E-2,6.8E+0,
1.51576E-3,1.60476E-2,8.E+0,
1.52076E-3,1.00476E-2,6.4E+0,
1.52576E-3,1.60476E-2,8.E+0,
1.53077E-3,1.00476E-2,6.4E+0,
1.53577E-3,1.60476E-2,7.6E+0,
1.54077E-3,1.00476E-2,6.4E+0,
1.54577E-3,1.80476E-2,7.6E+0,
1.55078E-3,1.00476E-2,6.4E+0,
1.55578E-3,1.80476E-2,7.6E+0,
1.56078E-3,1.20476E-2,6.4E+0,
1.56578E-3,1.80476E-2,7.6E+0,
1.57079E-3,1.00476E-2,6.E+0,
1.57579E-3,1.80476E-2,7.6E+0,
1.58079E-3,1.20476E-2,6.E+0,
1.58579E-3,1.80476E-2,7.2E+0,
1.5908E-3,1.00476E-2,5.6E+0,
1.5958E-3,1.80476E-2,7.2E+0,
1.6008E-3,1.00476E-2,5.6E+0,
1.6058E-3,1.80476E-2,7.2E+0,
1.61081E-3,1.20476E-2,5.2E+0,
1.61581E-3,1.80476E-2,6.4E+0,
1.62081E-3,1.00476E-2,5.2E+0,
1.62581E-3,1.80476E-2,6.4E+0,
1.63082E-3,1.00476E-2,4.8E+0,
1.63582E-3,1.60476E-2,6.4E+0,
1.64082E-3,1.00476E-2,4.4E+0,
1.64582E-3,1.60476E-2,6.E+0,
1.65083E-3,1.00476E-2,4.4E+0,
1.65583E-3,1.60476E-2,5.6E+0,
1.66083E-3,8.0476E-3,4.E+0,
1.66583E-3,1.60476E-2,5.6E+0,
1.67084E-3,8.0476E-3,3.6E+0,
1.67584E-3,1.60476E-2,5.2E+0,
1.68084E-3,8.0476E-3,3.6E+0,
1.68584E-3,1.40476E-2,4.8E+0,
1.69085E-3,8.0476E-3,3.2E+0,
1.69585E-3,1.40476E-2,4.4E+0,
1.70085E-3,8.0476E-3,2.8E+0,
1.70585E-3,1.40476E-2,4.E+0,
1.71086E-3,6.0476E-3,2.4E+0,
1.71586E-3,1.20476E-2,3.6E+0,
1.72086E-3,6.0476E-3,2.E+0,
1.72586E-3,1.20476E-2,3.6E+0,
1.73087E-3,6.0476E-3,2.E+0,
1.73587E-3,1.20476E-2,3.2E+0,
1.74087E-3,6.0476E-3,1.2E+0,
1.74587E-3,1.20476E-2,2.8E+0,
1.75088E-3,6.0476E-3,8.E-1,
1.75588E-3,1.20476E-2,2.4E+0,
1.76088E-3,4.0476E-3,8.E-1,
1.76588E-3,1.00476E-2,2.E+0,
1.77089E-3,4.0476E-3,4.E-1,
1.77589E-3,1.20476E-2,1.6E+0,
1.78089E-3,4.0476E-3,-1.11022E-15,
1.78589E-3,1.20476E-2,1.2E+0,
1.7909E-3,4.0476E-3,-4.E-1,
1.7959E-3,1.20476E-2,8.E-1,
1.8009E-3,4.0476E-3,-8.E-1,
1.8059E-3,1.20476E-2,4.E-1,
1.81091E-3,6.0476E-3,-1.2E+0,
1.81591E-3,1.20476E-2,-1.11022E-15,
1.82091E-3,6.0476E-3,-1.6E+0,
1.82591E-3,1.20476E-2,-1.11022E-15,
1.83092E-3,6.0476E-3,-2.E+0,
1.83592E-3,1.20476E-2,-8.E-1,
1.84092E-3,6.0476E-3,-2.4E+0,
1.84592E-3,1.20476E-2,-8.E-1,
1.85093E-3,6.0476E-3,-2.4E+0,
1.85593E-3,1.20476E-2,-1.2E+0,
1.86093E-3,8.0476E-3,-2.8E+0,
1.86593E-3,1.40476E-2,-1.6E+0,
1.87094E-3,8.0476E-3,-3.2E+0,
1.87594E-3,1.40476E-2,-2.E+0,
1.88094E-3,8.0476E-3,-3.6E+0,
1.88594E-3,1.60476E-2,-2.E+0,
1.89095E-3,8.0476E-3,-3.6E+0,
1.89595E-3,1.60476E-2,-2.4E+0,
1.90095E-3,8.0476E-3,-4.4E+0,
1.90595E-3,1.60476E-2,-2.8E+0,
1.91096E-3,1.00476E-2,-4.4E+0,
1.91596E-3,1.80476E-2,-3.2E+0,
1.92096E-3,1.20476E-2,-4.8E+0,
1.92596E-3,1.80476E-2,-3.6E+0,
1.93097E-3,1.20476E-2,-4.8E+0,
1.93597E-3,2.00476E-2,-3.6E+0,
1.94097E-3,1.40476E-2,-5.2E+0,
1.94597E-3,2.00476E-2,-3.6E+0,
1.95098E-3,1.40476E-2,-5.6E+0,
1.95598E-3,2.00476E-2,-4.4E+0,
1.96098E-3,1.60476E-2,-5.6E+0,
1.96598E-3,2.20476E-2,-4.4E+0,
1.97099E-3,1.60476E-2,-6.E+0,
1.97599E-3,2.40476E-2,-4.8E+0,
1.98099E-3,1.60476E-2,-6.4E+0,
1.98599E-3,2.40476E-2,-4.8E+0,
1.991E-3,1.80476E-2,-6.4E+0,
1.996E-3,2.60476E-2,-5.2E+0,
2.001E-3,2.00476E-2,-6.8E+0,
2.006E-3,2.60476E-2,-5.6E+0,
2.01101E-3,2.00476E-2,-6.8E+0,
2.01601E-3,2.80476E-2,-5.6E+0,
2.02101E-3,2.20476E-2,-7.2E+0,
2.02601E-3,3.00476E-2,-5.6E+0,
2.03102E-3,2.40476E-2,-7.2E+0,
2.03602E-3,3.00476E-2,-6.E+0,
2.04102E-3,2.40476E-2,-7.6E+0,
2.04602E-3,3.00476E-2,-6.E+0,
2.05103E-3,2.40476E-2,-7.2E+0,
2.05603E-3,3.20476E-2,-6.E+0,
2.06103E-3,2.60476E-2,-7.6E+0,
2.06603E-3,3.20476E-2,-6.E+0,
2.07104E-3,2.60476E-2,-7.6E+0,
2.07604E-3,3.40476E-2,-6.4E+0,
2.08104E-3,2.80476E-2,-7.6E+0,
2.08604E-3,3.20476E-2,-6.4E+0,
2.09105E-3,2.80476E-2,-7.6E+0,
2.09605E-3,3.40476E-2,-6.4E+0,
2.10105E-3,2.80476E-2,-7.6E+0,
2.10605E-3,3.40476E-2,-6.4E+0,
2.11106E-3,2.80476E-2,-7.6E+0,
2.11606E-3,3.60476E-2,-6.E+0,
2.12106E-3,3.00476E-2,-7.6E+0,
2.12606E-3,3.60476E-2,-6.4E+0,
2.13107E-3,3.00476E-2,-7.6E+0,
2.13607E-3,3.60476E-2,-6.4E+0,
2.14107E-3,3.00476E-2,-7.6E+0,
2.14607E-3,3.80476E-2,-6.4E+0,
2.15108E-3,3.00476E-2,-7.6E+0,
2.15608E-3,3.60476E-2,-6.4E+0,
2.16108E-3,3.00476E-2,-7.6E+0,
2.16608E-3,3.60476E-2,-6.4E+0,
2.17109E-3,3.00476E-2,-7.6E+0,
2.17609E-3,3.60476E-2,-6.4E+0,
2.18109E-3,3.00476E-2,-7.6E+0,
2.18609E-3,3.80476E-2,-6.4E+0,
2.1911E-3,3.20476E-2,-7.2E+0,
2.1961E-3,3.80476E-2,-6.E+0,
2.2011E-3,3.00476E-2,-7.6E+0,
2.2061E-3,3.80476E-2,-6.4E+0,
2.21111E-3,3.00476E-2,-7.2E+0,
2.21611E-3,3.80476E-2,-6.E+0,
2.22111E-3,3.00476E-2,-7.2E+0,
2.22611E-3,3.80476E-2,-6.E+0,
2.23112E-3,3.00476E-2,-7.2E+0,
2.23612E-3,3.60476E-2,-6.E+0,
2.24112E-3,2.80476E-2,-6.8E+0,
2.24612E-3,3.60476E-2,-5.6E+0,
2.25113E-3,2.80476E-2,-6.8E+0,
2.25613E-3,3.40476E-2,-5.6E+0,
2.26113E-3,2.80476E-2,-6.8E+0,
2.26613E-3,3.60476E-2,-5.2E+0,
2.27114E-3,3.00476E-2,-6.4E+0,
2.27614E-3,3.40476E-2,-5.2E+0,
2.28114E-3,2.80476E-2,-6.E+0,
2.28614E-3,3.40476E-2,-4.8E+0,
2.29115E-3,2.80476E-2,-6.E+0,
2.29615E-3,3.40476E-2,-4.4E+0,
2.30115E-3,2.60476E-2,-5.6E+0,
2.30615E-3,3.40476E-2,-4.4E+0,
2.31116E-3,2.60476E-2,-5.6E+0,
2.31616E-3,3.20476E-2,-4.E+0,
2.32116E-3,2.40476E-2,-5.2E+0,
2.32616E-3,3.00476E-2,-4.E+0,
2.33117E-3,2.40476E-2,-4.8E+0,
2.33617E-3,3.00476E-2,-3.6E+0,
2.34117E-3,2.40476E-2,-4.8E+0,
2.34617E-3,3.00476E-2,-3.2E+0,
2.35118E-3,2.00476E-2,-4.4E+0,
2.35618E-3,3.00476E-2,-2.8E+0,
2.36118E-3,2.00476E-2,-4.E+0,
2.36618E-3,2.60476E-2,-2.8E+0,
2.37119E-3,2.00476E-2,-3.6E+0,
2.37619E-3,2.80476E-2,-2.4E+0,
2.38119E-3,1.80476E-2,-3.6E+0,
2.38619E-3,2.60476E-2,-2.E+0,
2.3912E-3,1.80476E-2,-3.2E+0,
2.3962E-3,2.40476E-2,-1.6E+0,
2.4012E-3,1.80476E-2,-2.8E+0,
2.4062E-3,2.40476E-2,-1.2E+0,
2.41121E-3,1.60476E-2,-2.4E+0,
2.41621E-3,2.40476E-2,-8.E-1,
2.42121E-3,1.40476E-2,-2.E+0,
2.42621E-3,2.20476E-2,-4.E-1,
2.43122E-3,1.40476E-2,-2.E+0,
2.43622E-3,2.20476E-2,-4.E-1,
2.44122E-3,1.40476E-2,-1.2E+0,
2.44622E-3,2.00476E-2,-1.11022E-15,
2.45123E-3,1.20476E-2,-1.2E+0,
2.45623E-3,2.00476E-2,4.E-1,
2.46123E-3,1.20476E-2,-4.E-1,
2.46623E-3,2.00476E-2,8.E-1,
2.47124E-3,1.00476E-2,-4.E-1,
2.47624E-3,1.80476E-2,1.2E+0,
2.48124E-3,1.00476E-2,-1.11022E-15,
2.48624E-3,1.80476E-2,1.6E+0,
2.49125E-3,1.00476E-2,4.E-1,
2.49625E-3,1.80476E-2,2.E+0,
2.50125E-3,8.0476E-3,8.E-1,
2.50625E-3,1.60476E-2,2.E+0,
2.51126E-3,1.00476E-2,1.2E+0,
2.51626E-3,1.60476E-2,2.4E+0,
2.52126E-3,1.00476E-2,1.6E+0,
2.52626E-3,1.60476E-2,2.8E+0,
2.53127E-3,8.0476E-3,2.E+0,
2.53627E-3,1.60476E-2,3.2E+0,
2.54127E-3,1.00476E-2,2.E+0,
2.54627E-3,1.60476E-2,3.6E+0,
2.55128E-3,1.00476E-2,2.8E+0,
2.55628E-3,1.60476E-2,4.E+0,
2.56128E-3,8.0476E-3,3.2E+0,
2.56628E-3,1.80476E-2,4.4E+0,
2.57129E-3,1.00476E-2,3.2E+0,
2.57629E-3,1.60476E-2,4.4E+0,
2.58129E-3,1.00476E-2,3.6E+0,
2.58629E-3,1.60476E-2,4.8E+0,
2.5913E-3,1.00476E-2,4.E+0,
2.5963E-3,1.60476E-2,5.2E+0,
2.6013E-3,1.00476E-2,4.4E+0,
2.6063E-3,1.80476E-2,5.6E+0,
2.61131E-3,1.00476E-2,4.4E+0,
2.61631E-3,1.80476E-2,6.E+0,
2.62131E-3,1.20476E-2,4.8E+0,
2.62631E-3,2.00476E-2,6.E+0,
2.63132E-3,1.20476E-2,5.2E+0,
2.63632E-3,1.80476E-2,6.4E+0,
2.64132E-3,1.20476E-2,5.2E+0,
2.64632E-3,1.80476E-2,6.4E+0,
2.65133E-3,1.20476E-2,5.2E+0,
2.65633E-3,2.00476E-2,6.8E+0,
2.66133E-3,1.40476E-2,5.6E+0,
2.66633E-3,2.00476E-2,6.8E+0,
2.67134E-3,1.40476E-2,6.E+0,
2.67634E-3,2.20476E-2,7.2E+0,
2.68134E-3,1.40476E-2,6.E+0,
2.68634E-3,2.20476E-2,7.2E+0,
2.69135E-3,1.60476E-2,6.E+0,
2.69635E-3,2.20476E-2,7.2E+0,
2.70135E-3,1.60476E-2,6.E+0,
2.70635E-3,2.20476E-2,7.6E+0,
2.71136E-3,1.60476E-2,6.4E+0,
2.71636E-3,2.40476E-2,7.6E+0,
2.72136E-3,1.60476E-2,6.4E+0,
2.72636E-3,2.40476E-2,8.E+0,
2.73137E-3,1.60476E-2,6.4E+0,
2.73637E-3,2.40476E-2,7.6E+0,
2.74137E-3,1.80476E-2,6.8E+0,
2.74637E-3,2.40476E-2,7.6E+0,
2.75138E-3,1.80476E-2,6.8E+0,
2.75638E-3,2.40476E-2,8.E+0,
2.76138E-3,1.80476E-2,6.8E+0,
2.76638E-3,2.60476E-2,8.E+0,
2.77139E-3,1.80476E-2,6.8E+0,
2.77639E-3,2.60476E-2,8.E+0,
2.78139E-3,2.00476E-2,6.8E+0,
2.78639E-3,2.60476E-2,8.E+0,
2.7914E-3,1.80476E-2,6.8E+0,
2.7964E-3,2.60476E-2,7.6E+0,
2.8014E-3,1.80476E-2,6.4E+0,
2.8064E-3,2.60476E-2,7.6E+0,
2.81141E-3,1.80476E-2,6.4E+0,
2.81641E-3,2.60476E-2,7.6E+0,
2.82141E-3,1.80476E-2,6.E+0,
2.82641E-3,2.60476E-2,7.6E+0,
2.83142E-3,2.00476E-2,6.E+0,
2.83642E-3,2.60476E-2,7.2E+0,
2.84142E-3,1.80476E-2,5.6E+0,
2.84642E-3,2.60476E-2,7.2E+0,
2.85143E-3,1.80476E-2,5.6E+0,
2.85643E-3,2.40476E-2,7.2E+0,
2.86143E-3,1.60476E-2,5.6E+0,
2.86643E-3,2.40476E-2,6.8E+0,
2.87144E-3,1.80476E-2,5.2E+0,
2.87644E-3,2.40476E-2,6.4E+0,
2.88144E-3,1.60476E-2,4.8E+0,
2.88644E-3,2.40476E-2,6.4E+0,
2.89145E-3,1.40476E-2,4.8E+0,
2.89645E-3,2.20476E-2,6.E+0,
2.90145E-3,1.40476E-2,4.4E+0,
2.90645E-3,2.20476E-2,6.E+0,
2.91146E-3,1.40476E-2,4.E+0,
2.91646E-3,2.20476E-2,5.6E+0,
2.92146E-3,1.40476E-2,4.E+0,
2.92646E-3,2.00476E-2,5.2E+0,
2.93147E-3,1.40476E-2,3.6E+0,
2.93647E-3,2.00476E-2,4.8E+0,
2.94147E-3,1.20476E-2,3.2E+0,
2.94647E-3,1.80476E-2,4.4E+0,
2.95148E-3,1.00476E-2,2.8E+0,
2.95648E-3,1.80476E-2,4.4E+0,
2.96148E-3,1.20476E-2,2.4E+0,
2.96648E-3,1.80476E-2,4.E+0,
2.97149E-3,1.00476E-2,2.4E+0,
2.97649E-3,1.80476E-2,3.6E+0,
2.98149E-3,1.00476E-2,2.E+0,
2.98649E-3,1.60476E-2,3.2E+0,
2.9915E-3,8.0476E-3,1.6E+0,
2.9965E-3,1.60476E-2,2.8E+0,
3.0015E-3,8.0476E-3,1.2E+0,
3.0065E-3,1.40476E-2,2.4E+0,
3.01151E-3,8.0476E-3,8.E-1,
3.01651E-3,1.40476E-2,2.E+0,
3.02151E-3,6.0476E-3,4.E-1,
3.02651E-3,1.20476E-2,2.E+0,
3.03152E-3,6.0476E-3,-1.11022E-15,
3.03652E-3,1.20476E-2,1.2E+0,
3.04152E-3,6.0476E-3,-4.E-1,
3.04652E-3,1.20476E-2,1.2E+0,
3.05153E-3,4.0476E-3,-8.E-1,
3.05653E-3,1.20476E-2,8.E-1,
3.06153E-3,6.0476E-3,-8.E-1,
3.06653E-3,1.20476E-2,4.E-1,
3.07154E-3,6.0476E-3,-1.2E+0,
3.07654E-3,1.20476E-2,-1.11022E-15,
3.08154E-3,6.0476E-3,-2.E+0,
3.08654E-3,1.20476E-2,-4.E-1,
3.09155E-3,4.0476E-3,-2.4E+0,
3.09655E-3,1.20476E-2,-8.E-1,
3.10155E-3,6.0476E-3,-2.4E+0,
3.10655E-3,1.20476E-2,-1.2E+0,
3.11156E-3,6.0476E-3,-2.8E+0,
3.11656E-3,1.40476E-2,-1.2E+0,
3.12156E-3,6.0476E-3,-2.8E+0,
3.12656E-3,1.20476E-2,-1.6E+0,
3.13157E-3,6.0476E-3,-3.2E+0,
3.13657E-3,1.20476E-2,-2.E+0,
3.14157E-3,6.0476E-3,-3.6E+0,
3.14657E-3,1.40476E-2,-2.4E+0,
3.15158E-3,8.0476E-3,-4.E+0,
3.15658E-3,1.40476E-2,-2.8E+0,
3.16158E-3,8.0476E-3,-4.4E+0,
3.16658E-3,1.60476E-2,-3.2E+0,
3.17159E-3,8.0476E-3,-4.8E+0,
3.17659E-3,1.60476E-2,-3.2E+0,
3.18159E-3,1.00476E-2,-4.8E+0,
3.18659E-3,1.60476E-2,-3.6E+0,
3.1916E-3,1.00476E-2,-5.2E+0,
3.1966E-3,1.60476E-2,-4.E+0,
3.2016E-3,1.00476E-2,-5.6E+0,
3.2066E-3,1.80476E-2,-4.4E+0,
3.21161E-3,1.00476E-2,-5.6E+0,
3.21661E-3,1.80476E-2,-4.4E+0,
3.22161E-3,1.20476E-2,-6.E+0,
3.22661E-3,2.00476E-2,-4.4E+0,
3.23162E-3,1.20476E-2,-6.E+0,
3.23662E-3,2.00476E-2,-4.8E+0,
3.24162E-3,1.40476E-2,-6.4E+0,
3.24662E-3,2.00476E-2,-5.2E+0,
3.25163E-3,1.40476E-2,-6.4E+0,
3.25663E-3,2.40476E-2,-5.2E+0,
3.26163E-3,1.60476E-2,-6.8E+0,
3.26663E-3,2.40476E-2,-5.6E+0,
3.27164E-3,1.60476E-2,-6.8E+0,
3.27664E-3,2.40476E-2,-5.6E+0,
3.28164E-3,1.80476E-2,-7.2E+0,
3.28664E-3,2.40476E-2,-5.6E+0,
3.29165E-3,1.80476E-2,-7.2E+0,
3.29665E-3,2.40476E-2,-5.6E+0,
3.30165E-3,1.80476E-2,-7.2E+0,
3.30665E-3,2.60476E-2,-6.E+0,
3.31166E-3,2.00476E-2,-7.2E+0,
3.31666E-3,2.80476E-2,-6.E+0,
3.32166E-3,2.00476E-2,-7.2E+0,
3.32666E-3,2.80476E-2,-6.4E+0,
3.33167E-3,2.20476E-2,-7.6E+0,
3.33667E-3,2.80476E-2,-6.4E+0,
3.34167E-3,2.20476E-2,-7.6E+0,
3.34667E-3,2.80476E-2,-6.4E+0,
3.35168E-3,2.20476E-2,-7.6E+0,
3.35668E-3,2.80476E-2,-6.4E+0,
3.36168E-3,2.40476E-2,-7.6E+0,
3.36668E-3,3.00476E-2,-6.4E+0,
3.37169E-3,2.40476E-2,-7.6E+0,
3.37669E-3,3.00476E-2,-6.4E+0,
3.38169E-3,2.40476E-2,-7.6E+0,
3.38669E-3,3.20476E-2,-6.4E+0,
3.3917E-3,2.40476E-2,-7.6E+0,
3.3967E-3,3.20476E-2,-6.4E+0,
3.4017E-3,2.40476E-2,-7.6E+0,
3.4067E-3,3.20476E-2,-6.4E+0,
3.41171E-3,2.60476E-2,-7.6E+0,
3.41671E-3,3.20476E-2,-6.E+0,
3.42171E-3,2.40476E-2,-7.6E+0,
3.42671E-3,3.00476E-2,-6.4E+0,
3.43172E-3,2.40476E-2,-7.6E+0,
3.43672E-3,3.00476E-2,-6.4E+0,
3.44172E-3,2.40476E-2,-7.6E+0,
3.44672E-3,3.00476E-2,-6.E+0,
3.45173E-3,2.40476E-2,-7.6E+0,
3.45673E-3,3.00476E-2,-6.E+0,
3.46173E-3,2.40476E-2,-7.6E+0,
3.46673E-3,3.00476E-2,-6.E+0,
3.47174E-3,2.20476E-2,-7.2E+0,
3.47674E-3,3.00476E-2,-6.E+0,
3.48174E-3,2.20476E-2,-7.2E+0,
3.48674E-3,3.00476E-2,-6.E+0,
3.49175E-3,2.40476E-2,-6.8E+0,
3.49675E-3,3.00476E-2,-5.6E+0,
3.50175E-3,2.20476E-2,-6.8E+0,
3.50675E-3,3.00476E-2,-5.6E+0,
3.51176E-3,2.20476E-2,-6.8E+0,
3.51676E-3,3.00476E-2,-5.6E+0,
3.52176E-3,2.20476E-2,-6.4E+0,
3.52676E-3,2.80476E-2,-5.2E+0,
3.53177E-3,2.00476E-2,-6.4E+0,
3.53677E-3,2.80476E-2,-5.2E+0,
3.54177E-3,2.00476E-2,-6.E+0,
3.54677E-3,2.60476E-2,-4.8E+0,
3.55178E-3,2.00476E-2,-5.6E+0,
3.55678E-3,2.60476E-2,-4.4E+0,
3.56178E-3,1.60476E-2,-5.6E+0,
3.56678E-3,2.40476E-2,-4.4E+0,
3.57179E-3,1.80476E-2,-5.2E+0,
3.57679E-3,2.40476E-2,-4.E+0,
3.58179E-3,1.60476E-2,-4.8E+0,
3.58679E-3,2.40476E-2,-3.6E+0,
3.5918E-3,1.60476E-2,-4.8E+0,
3.5968E-3,2.20476E-2,-3.2E+0,
3.6018E-3,1.40476E-2,-4.4E+0,
3.6068E-3,2.20476E-2,-3.2E+0,
3.61181E-3,1.20476E-2,-4.E+0,
3.61681E-3,2.00476E-2,-2.8E+0,
3.62181E-3,1.20476E-2,-4.E+0,
3.62681E-3,2.00476E-2,-2.4E+0,
3.63182E-3,1.20476E-2,-3.6E+0,
3.63682E-3,1.80476E-2,-2.4E+0,
3.64182E-3,1.00476E-2,-3.2E+0,
3.64682E-3,1.80476E-2,-2.E+0,
3.65183E-3,1.00476E-2,-2.8E+0,
3.65683E-3,1.60476E-2,-1.2E+0,
3.66183E-3,8.0476E-3,-2.4E+0,
3.66683E-3,1.60476E-2,-1.2E+0,
3.67184E-3,6.0476E-3,-2.4E+0,
3.67684E-3,1.60476E-2,-8.E-1,
3.68184E-3,6.0476E-3,-2.E+0,
3.68684E-3,1.40476E-2,-4.E-1,
3.69185E-3,6.0476E-3,-1.6E+0,
3.69685E-3,1.20476E-2,-1.11022E-15,
3.70185E-3,6.0476E-3,-1.6E+0,
3.70685E-3,1.20476E-2,4.E-1,
3.71186E-3,4.0476E-3,-8.E-1,
3.71686E-3,1.00476E-2,4.E-1,
3.72186E-3,4.0476E-3,-4.E-1,
3.72686E-3,1.00476E-2,8.E-1,
3.73187E-3,4.0476E-3,-1.11022E-15,
3.73687E-3,1.00476E-2,1.6E+0,
3.74187E-3,4.0476E-3,4.E-1,
3.74687E-3,1.00476E-2,1.6E+0,
3.75188E-3,4.0476E-3,8.E-1,
3.75688E-3,1.00476E-2,2.E+0,
3.76188E-3,2.0476E-3,8.E-1,
3.76688E-3,1.00476E-2,2.4E+0,
3.77189E-3,2.0476E-3,1.2E+0,
3.77689E-3,1.00476E-2,2.8E+0,
3.78189E-3,2.0476E-3,1.6E+0,
3.78689E-3,8.0476E-3,3.2E+0,
3.7919E-3,2.0476E-3,2.E+0,
3.7969E-3,8.0476E-3,3.6E+0,
3.8019E-3,2.0476E-3,2.4E+0,
3.8069E-3,8.0476E-3,4.E+0,
3.81191E-3,2.0476E-3,2.8E+0,
3.81691E-3,8.0476E-3,4.4E+0,
3.82191E-3,2.0476E-3,3.2E+0,
3.82691E-3,8.0476E-3,4.4E+0,
3.83192E-3,2.0476E-3,3.2E+0,
3.83692E-3,8.0476E-3,5.2E+0,
3.84192E-3,2.0476E-3,3.6E+0,
3.84692E-3,8.0476E-3,5.2E+0,
3.85193E-3,2.0476E-3,4.E+0,
3.85693E-3,1.00476E-2,5.2E+0,
3.86193E-3,2.0476E-3,4.4E+0,
3.86693E-3,1.00476E-2,5.6E+0,
3.87194E-3,4.0476E-3,4.8E+0,
3.87694E-3,1.00476E-2,6.E+0,
3.88194E-3,4.0476E-3,4.8E+0,
3.88694E-3,1.00476E-2,6.4E+0,
3.89195E-3,4.0476E-3,5.2E+0,
3.89695E-3,1.20476E-2,6.4E+0,
3.90195E-3,6.0476E-3,5.2E+0,
3.90695E-3,1.20476E-2,6.8E+0,
3.91196E-3,6.0476E-3,5.6E+0,
3.91696E-3,1.40476E-2,6.8E+0,
3.92196E-3,8.0476E-3,5.6E+0,
3.92696E-3,1.40476E-2,6.8E+0,
3.93197E-3,8.0476E-3,6.E+0,
3.93697E-3,1.40476E-2,7.2E+0,
3.94197E-3,8.0476E-3,6.E+0,
3.94697E-3,1.40476E-2,7.2E+0,
3.95198E-3,8.0476E-3,6.E+0,
3.95698E-3,1.60476E-2,7.6E+0,
3.96198E-3,1.00476E-2,6.4E+0,
3.96698E-3,1.40476E-2,7.6E+0,
3.97199E-3,8.0476E-3,6.4E+0,
3.97699E-3,1.60476E-2,7.6E+0,
3.98199E-3,1.00476E-2,6.4E+0,
3.98699E-3,1.80476E-2,7.6E+0,
3.992E-3,1.20476E-2,6.4E+0,
3.997E-3,1.80476E-2,8.E+0,
4.002E-3,1.00476E-2,6.8E+0,
4.007E-3,1.80476E-2,8.E+0,
4.01201E-3,1.00476E-2,6.8E+0,
4.01701E-3,1.80476E-2,8.E+0,
4.02201E-3,1.20476E-2,6.8E+0,
4.02701E-3,1.80476E-2,8.E+0,
4.03202E-3,1.20476E-2,6.8E+0,
4.03702E-3,2.00476E-2,8.E+0,
4.04202E-3,1.20476E-2,6.8E+0,
4.04702E-3,1.80476E-2,7.6E+0,
4.05203E-3,1.20476E-2,6.4E+0,
4.05703E-3,1.80476E-2,7.6E+0,
4.06203E-3,1.20476E-2,6.4E+0,
4.06703E-3,1.80476E-2,7.6E+0,
4.07204E-3,1.20476E-2,6.4E+0,
4.07704E-3,1.80476E-2,7.6E+0,
4.08204E-3,1.20476E-2,6.E+0,
4.08704E-3,1.80476E-2,7.2E+0,
4.09205E-3,1.00476E-2,6.E+0,
4.09705E-3,1.80476E-2,7.2E+0,
4.10205E-3,1.00476E-2,5.6E+0,
4.10705E-3,1.80476E-2,7.2E+0,
4.11206E-3,1.00476E-2,5.6E+0,
4.11706E-3,1.80476E-2,6.8E+0,
4.12206E-3,1.00476E-2,5.2E+0,
4.12706E-3,1.80476E-2,6.8E+0,
4.13207E-3,1.00476E-2,5.2E+0,
4.13707E-3,1.60476E-2,6.4E+0,
4.14207E-3,8.0476E-3,4.8E+0,
4.14707E-3,1.60476E-2,6.E+0,
4.15208E-3,8.0476E-3,4.4E+0,
4.15708E-3,1.60476E-2,6.E+0,
4.16208E-3,8.0476E-3,4.4E+0,
4.16708E-3,1.40476E-2,5.6E+0,
4.17209E-3,6.0476E-3,4.E+0,
4.17709E-3,1.40476E-2,5.2E+0,
4.18209E-3,6.0476E-3,3.6E+0,
4.18709E-3,1.20476E-2,4.8E+0,
4.1921E-3,4.0476E-3,3.6E+0,
4.1971E-3,1.20476E-2,4.8E+0,
4.2021E-3,4.0476E-3,3.2E+0,
4.2071E-3,1.00476E-2,4.8E+0,
4.21211E-3,2.0476E-3,2.8E+0,
4.21711E-3,1.00476E-2,4.E+0,
4.22211E-3,4.76E-5,2.4E+0,
4.22711E-3,8.0476E-3,4.E+0,
4.23212E-3,4.76E-5,2.E+0,
4.23712E-3,8.0476E-3,3.2E+0,
4.24212E-3,4.76E-5,1.6E+0,
4.24712E-3,8.0476E-3,3.2E+0,
4.25213E-3,4.76E-5,1.2E+0,
4.25713E-3,8.0476E-3,2.8E+0,
4.26213E-3,4.76E-5,8.E-1,
4.26713E-3,6.0476E-3,2.4E+0,
4.27214E-3,-1.9524E-3,8.E-1,
4.27714E-3,6.0476E-3,2.E+0,
4.28214E-3,-1.9524E-3,4.E-1,
4.28714E-3,6.0476E-3,1.6E+0,
4.29215E-3,-1.9524E-3,-1.11022E-15,
4.29715E-3,6.0476E-3,1.2E+0,
4.30215E-3,-1.9524E-3,-4.E-1,
4.30715E-3,6.0476E-3,8.E-1,
4.31216E-3,-3.9524E-3,-8.E-1,
4.31716E-3,4.0476E-3,8.E-1,
4.32216E-3,-1.9524E-3,-1.2E+0,
4.32716E-3,4.0476E-3,-1.11022E-15,
4.33217E-3,-3.9524E-3,-1.6E+0,
4.33717E-3,4.0476E-3,-4.E-1,
4.34217E-3,-3.9524E-3,-2.E+0,
4.34717E-3,4.0476E-3,-4.E-1,
4.35218E-3,-3.9524E-3,-2.4E+0,
4.35718E-3,4.0476E-3,-8.E-1,
4.36218E-3,-3.9524E-3,-2.4E+0,
4.36718E-3,4.0476E-3,-1.2E+0,
4.37219E-3,-3.9524E-3,-2.8E+0,
4.37719E-3,2.0476E-3,-1.6E+0,
4.38219E-3,-3.9524E-3,-3.2E+0,
4.38719E-3,2.0476E-3,-2.E+0,
4.3922E-3,-3.9524E-3,-3.6E+0,
4.3972E-3,4.0476E-3,-2.E+0,
4.4022E-3,-1.9524E-3,-4.E+0,
4.4072E-3,6.0476E-3,-2.4E+0,
4.41221E-3,-1.9524E-3,-4.E+0,
4.41721E-3,4.0476E-3,-2.8E+0,
4.42221E-3,-1.9524E-3,-4.4E+0,
4.42721E-3,4.0476E-3,-3.2E+0,
4.43222E-3,4.76E-5,-4.8E+0,
4.43722E-3,6.0476E-3,-3.6E+0,
4.44222E-3,-1.9524E-3,-5.2E+0,
4.44722E-3,6.0476E-3,-3.6E+0,
4.45223E-3,4.76E-5,-5.6E+0,
4.45723E-3,6.0476E-3,-4.E+0,
4.46223E-3,-1.9524E-3,-5.6E+0,
4.46723E-3,6.0476E-3,-4.4E+0,
4.47224E-3,4.76E-5,-5.6E+0,
4.47724E-3,8.0476E-3,-4.8E+0,
4.48224E-3,2.0476E-3,-6.E+0,
4.48724E-3,8.0476E-3,-4.8E+0,
4.49225E-3,2.0476E-3,-6.4E+0,
4.49725E-3,1.00476E-2,-5.2E+0,
4.50225E-3,4.0476E-3,-6.4E+0,
4.50725E-3,1.00476E-2,-5.2E+0,
4.51226E-3,4.0476E-3,-6.8E+0,
4.51726E-3,1.20476E-2,-5.2E+0,
4.52226E-3,6.0476E-3,-6.8E+0,
4.52726E-3,1.20476E-2,-5.6E+0,
4.53227E-3,6.0476E-3,-7.2E+0,
4.53727E-3,1.20476E-2,-5.6E+0,
4.54227E-3,6.0476E-3,-7.2E+0,
4.54727E-3,1.40476E-2,-6.E+0,
4.55228E-3,8.0476E-3,-7.2E+0,
4.55728E-3,1.60476E-2,-6.E+0,
4.56228E-3,8.0476E-3,-7.2E+0,
4.56728E-3,1.40476E-2,-6.E+0,
4.57229E-3,8.0476E-3,-7.2E+0,
4.57729E-3,1.60476E-2,-6.4E+0,
4.58229E-3,1.00476E-2,-7.6E+0,
4.58729E-3,1.60476E-2,-6.4E+0,
4.5923E-3,1.00476E-2,-7.6E+0,
4.5973E-3,1.60476E-2,-6.4E+0,
4.6023E-3,1.00476E-2,-7.6E+0,
4.6073E-3,1.80476E-2,-6.4E+0,
4.61231E-3,1.20476E-2,-7.6E+0,
4.61731E-3,1.80476E-2,-6.4E+0,
4.62231E-3,1.20476E-2,-7.6E+0,
4.62731E-3,2.00476E-2,-6.4E+0,
4.63232E-3,1.00476E-2,-7.6E+0,
4.63732E-3,1.80476E-2,-6.4E+0,
4.64232E-3,1.20476E-2,-7.6E+0,
4.64732E-3,1.80476E-2,-6.4E+0,
4.65233E-3,1.20476E-2,-7.6E+0,
4.65733E-3,1.80476E-2,-6.4E+0,
4.66233E-3,1.20476E-2,-7.6E+0,
4.66733E-3,1.80476E-2,-6.4E+0,
4.67234E-3,1.20476E-2,-7.6E+0,
4.67734E-3,1.80476E-2,-6.4E+0,
4.68234E-3,1.20476E-2,-7.6E+0,
4.68734E-3,1.80476E-2,-6.4E+0,
4.69235E-3,1.20476E-2,-7.6E+0,
4.69735E-3,1.80476E-2,-6.E+0,
4.70235E-3,1.20476E-2,-7.6E+0,
4.70735E-3,1.80476E-2,-6.E+0,
4.71236E-3,1.00476E-2,-7.2E+0,
4.71736E-3,2.00476E-2,-6.4E+0,
4.72236E-3,1.20476E-2,-7.2E+0,
4.72736E-3,1.80476E-2,-6.E+0,
4.73237E-3,1.00476E-2,-7.2E+0,
4.73737E-3,1.60476E-2,-6.E+0,
4.74237E-3,1.00476E-2,-7.2E+0,
4.74737E-3,1.60476E-2,-5.6E+0,
4.75238E-3,8.0476E-3,-6.8E+0,
4.75738E-3,1.60476E-2,-5.6E+0,
4.76238E-3,1.00476E-2,-6.8E+0,
4.76738E-3,1.60476E-2,-5.6E+0,
4.77239E-3,8.0476E-3,-6.4E+0,
4.77739E-3,1.60476E-2,-5.2E+0,
4.78239E-3,8.0476E-3,-6.4E+0,
4.78739E-3,1.40476E-2,-5.2E+0,
4.7924E-3,8.0476E-3,-6.4E+0,
4.7974E-3,1.40476E-2,-4.8E+0,
4.8024E-3,6.0476E-3,-6.E+0,
4.8074E-3,1.40476E-2,-4.4E+0,
4.81241E-3,6.0476E-3,-5.6E+0,
4.81741E-3,1.40476E-2,-4.4E+0,
4.82241E-3,4.0476E-3,-5.6E+0,
4.82741E-3,1.20476E-2,-4.E+0,
4.83242E-3,4.0476E-3,-5.2E+0,
4.83742E-3,1.00476E-2,-4.E+0,
4.84242E-3,4.0476E-3,-4.8E+0,
4.84742E-3,1.00476E-2,-3.6E+0,
4.85243E-3,2.0476E-3,-4.4E+0,
4.85743E-3,1.00476E-2,-3.2E+0,
4.86243E-3,2.0476E-3,-4.4E+0,
4.86743E-3,8.0476E-3,-2.8E+0,
4.87244E-3,4.76E-5,-4.E+0,
4.87744E-3,6.0476E-3,-2.4E+0,
4.88244E-3,4.76E-5,-3.6E+0,
4.88744E-3,8.0476E-3,-2.4E+0,
4.89245E-3,4.76E-5,-3.2E+0,
4.89745E-3,6.0476E-3,-2.E+0,
4.90245E-3,-1.9524E-3,-3.2E+0,
4.90745E-3,4.0476E-3,-1.6E+0,
4.91246E-3,-1.9524E-3,-2.8E+0,
4.91746E-3,4.0476E-3,-1.2E+0,
4.92246E-3,-3.9524E-3,-2.4E+0,
4.92746E-3,2.0476E-3,-8.E-1,
4.93247E-3,-3.9524E-3,-2.E+0,
4.93747E-3,2.0476E-3,-4.E-1,
4.94247E-3,-5.9524E-3,-1.6E+0,
4.94747E-3,2.0476E-3,-4.E-1,
4.95248E-3,-3.9524E-3,-1.2E+0,
4.95748E-3,2.0476E-3,-1.11022E-15,
4.96248E-3,-5.9524E-3,-8.E-1,
4.96748E-3,2.0476E-3,4.E-1,
4.97249E-3,-5.9524E-3,-4.E-1,
4.97749E-3,4.76E-5,8.E-1,
4.98249E-3,-7.9524E-3,-4.E-1,
4.98749E-3,4.76E-5,1.2E+0,
4.9925E-3,-5.9524E-3,-1.11022E-15,
4.9975E-3,4.76E-5,1.6E+0,
5.0025E-3,-7.9524E-3,8.E-1,
5.0075E-3,4.76E-5,2.E+0,
5.01251E-3,-7.9524E-3,8.E-1,
5.01751E-3,4.76E-5,2.E+0,
5.02251E-3,-7.9524E-3,1.2E+0,
5.02751E-3,4.76E-5,2.8E+0,
5.03252E-3,-7.9524E-3,1.6E+0,
5.03752E-3,4.76E-5,2.8E+0,
5.04252E-3,-7.9524E-3,2.E+0,
5.04752E-3,4.76E-5,3.2E+0,
5.05253E-3,-7.9524E-3,2.4E+0,
5.05753E-3,-1.9524E-3,3.6E+0,
5.06253E-3,-7.9524E-3,2.8E+0,
5.06753E-3,4.76E-5,4.E+0,
5.07254E-3,-7.9524E-3,2.8E+0,
5.07754E-3,4.76E-5,4.4E+0,
5.08254E-3,-5.9524E-3,3.2E+0,
5.08754E-3,-1.9524E-3,4.4E+0,
5.09255E-3,-5.9524E-3,3.6E+0,
5.09755E-3,4.76E-5,4.8E+0,
5.10255E-3,-5.9524E-3,4.E+0,
5.10755E-3,4.76E-5,5.2E+0,
5.11256E-3,-3.9524E-3,4.4E+0,
5.11756E-3,2.0476E-3,5.6E+0,
5.12256E-3,-3.9524E-3,4.4E+0,
5.12756E-3,2.0476E-3,5.6E+0,
5.13257E-3,-3.9524E-3,4.8E+0,
5.13757E-3,2.0476E-3,6.E+0,
5.14257E-3,-1.9524E-3,4.8E+0,
5.14757E-3,4.0476E-3,6.4E+0,
5.15258E-3,-1.9524E-3,5.2E+0,
5.15758E-3,6.0476E-3,6.4E+0,
5.16258E-3,-1.9524E-3,5.6E+0,
5.16758E-3,6.0476E-3,6.8E+0,
5.17259E-3,-1.9524E-3,5.6E+0,
5.17759E-3,6.0476E-3,7.2E+0,
5.18259E-3,4.76E-5,6.E+0,
5.18759E-3,6.0476E-3,7.2E+0,
5.1926E-3,4.76E-5,6.E+0,
5.1976E-3,8.0476E-3,7.2E+0,
5.2026E-3,4.76E-5,6.4E+0,
5.2076E-3,8.0476E-3,7.2E+0,
5.21261E-3,2.0476E-3,6.4E+0,
5.21761E-3,8.0476E-3,7.6E+0,
5.22261E-3,4.0476E-3,6.4E+0,
5.22761E-3,1.00476E-2,7.6E+0,
5.23262E-3,4.0476E-3,6.4E+0,
5.23762E-3,1.00476E-2,7.6E+0,
5.24262E-3,4.0476E-3,6.4E+0,
5.24762E-3,1.00476E-2,7.6E+0,
5.25263E-3,4.0476E-3,6.8E+0,
5.25763E-3,1.20476E-2,8.E+0,
5.26263E-3,4.0476E-3,6.8E+0,
5.26763E-3,1.00476E-2,8.E+0,
5.27264E-3,6.0476E-3,6.8E+0,
5.27764E-3,1.20476E-2,8.E+0,
5.28264E-3,6.0476E-3,6.8E+0,
5.28764E-3,1.20476E-2,8.E+0,
5.29265E-3,6.0476E-3,6.8E+0,
5.29765E-3,1.20476E-2,8.E+0,
5.30265E-3,6.0476E-3,6.4E+0,
5.30765E-3,1.40476E-2,7.6E+0,
5.31266E-3,6.0476E-3,6.4E+0,
5.31766E-3,1.40476E-2,7.6E+0,
5.32266E-3,6.0476E-3,6.4E+0,
5.32766E-3,1.20476E-2,7.6E+0,
5.33267E-3,6.0476E-3,6.4E+0,
5.33767E-3,1.40476E-2,7.2E+0,
5.34267E-3,6.0476E-3,6.E+0,
5.34767E-3,1.20476E-2,7.2E+0,
5.35268E-3,4.0476E-3,6.E+0,
5.35768E-3,1.20476E-2,7.2E+0,
5.36268E-3,4.0476E-3,5.6E+0,
5.36768E-3,1.20476E-2,6.8E+0,
5.37269E-3,4.0476E-3,5.2E+0,
5.37769E-3,1.00476E-2,6.8E+0,
5.38269E-3,4.0476E-3,5.2E+0,
5.38769E-3,1.00476E-2,6.4E+0,
5.3927E-3,2.0476E-3,4.8E+0,
5.3977E-3,1.00476E-2,6.4E+0,
5.4027E-3,2.0476E-3,4.8E+0,
5.4077E-3,1.00476E-2,6.E+0,
5.41271E-3,2.0476E-3,4.4E+0,
5.41771E-3,1.00476E-2,5.6E+0,
5.42271E-3,4.76E-5,4.E+0,
5.42771E-3,8.0476E-3,5.6E+0,
5.43272E-3,4.76E-5,4.E+0,
5.43772E-3,6.0476E-3,5.2E+0,
5.44272E-3,-1.9524E-3,3.6E+0,
5.44772E-3,6.0476E-3,4.8E+0,
5.45273E-3,-1.9524E-3,3.2E+0,
5.45773E-3,6.0476E-3,4.4E+0,
5.46273E-3,-3.9524E-3,2.8E+0,
5.46773E-3,2.0476E-3,4.4E+0,
5.47274E-3,-3.9524E-3,2.4E+0,
5.47774E-3,2.0476E-3,4.E+0,
5.48274E-3,-3.9524E-3,2.4E+0,
5.48774E-3,2.0476E-3,3.6E+0,
5.49275E-3,-5.9524E-3,1.6E+0,
5.49775E-3,2.0476E-3,3.2E+0,
5.50275E-3,-5.9524E-3,1.6E+0,
5.50775E-3,4.76E-5,2.8E+0,
5.51276E-3,-7.9524E-3,1.2E+0,
5.51776E-3,4.76E-5,2.8E+0,
5.52276E-3,-7.9524E-3,4.E-1,
5.52776E-3,-1.9524E-3,2.4E+0,
5.53277E-3,-7.9524E-3,4.E-1,
5.53777E-3,-1.9524E-3,2.E+0,
5.54277E-3,-7.9524E-3,-1.11022E-15,
5.54777E-3,-1.9524E-3,1.2E+0,
5.55278E-3,-9.9524E-3,-4.E-1,
5.55778E-3,-3.9524E-3,1.2E+0,
5.56278E-3,-9.9524E-3,-4.E-1,
5.56778E-3,-3.9524E-3,8.E-1,
5.57279E-3,-9.9524E-3,-1.2E+0,
5.57779E-3,-1.9524E-3,4.E-1,
5.58279E-3,-9.9524E-3,-1.6E+0,
5.58779E-3,-3.9524E-3,-1.11022E-15,
5.5928E-3,-9.9524E-3,-2.E+0,
5.5978E-3,-3.9524E-3,-4.E-1,
5.6028E-3,-1.19524E-2,-2.4E+0,
5.6078E-3,-3.9524E-3,-8.E-1,
5.61281E-3,-1.19524E-2,-2.4E+0,
5.61781E-3,-3.9524E-3,-1.2E+0,
5.62281E-3,-9.9524E-3,-2.8E+0,
5.62781E-3,-3.9524E-3,-1.6E+0,
5.63282E-3,-1.19524E-2,-3.2E+0,
5.63782E-3,-3.9524E-3,-1.6E+0,
5.64282E-3,-1.19524E-2,-3.6E+0,
5.64782E-3,-3.9524E-3,-2.E+0,
5.65283E-3,-9.9524E-3,-3.6E+0,
5.65783E-3,-3.9524E-3,-2.4E+0,
5.66283E-3,-9.9524E-3,-4.E+0,
5.66783E-3,-1.9524E-3,-2.8E+0,
5.67284E-3,-9.9524E-3,-4.4E+0,
5.67784E-3,-3.9524E-3,-3.2E+0,
5.68284E-3,-9.9524E-3,-4.8E+0,
5.68784E-3,-1.9524E-3,-3.2E+0,
5.69285E-3,-7.9524E-3,-4.8E+0,
5.69785E-3,-1.9524E-3,-3.6E+0,
5.70285E-3,-7.9524E-3,-5.2E+0,
5.70785E-3,-1.9524E-3,-4.E+0,
5.71286E-3,-7.9524E-3,-5.6E+0,
5.71786E-3,-1.9524E-3,-4.4E+0,
5.72286E-3,-7.9524E-3,-5.6E+0,
5.72786E-3,-1.9524E-3,-4.4E+0,
5.73287E-3,-5.9524E-3,-6.E+0,
5.73787E-3,4.76E-5,-4.8E+0,
5.74287E-3,-5.9524E-3,-6.E+0,
5.74787E-3,4.76E-5,-5.2E+0,
5.75288E-3,-5.9524E-3,-6.4E+0,
5.75788E-3,4.76E-5,-5.2E+0,
5.76288E-3,-3.9524E-3,-6.8E+0,
5.76788E-3,4.0476E-3,-5.6E+0,
5.77289E-3,-3.9524E-3,-6.8E+0,
5.77789E-3,4.0476E-3,-5.6E+0,
5.78289E-3,-3.9524E-3,-6.8E+0,
5.78789E-3,4.0476E-3,-5.6E+0,
5.7929E-3,-1.9524E-3,-7.2E+0,
5.7979E-3,4.0476E-3,-5.6E+0,
5.8029E-3,-1.9524E-3,-7.2E+0,
5.8079E-3,6.0476E-3,-6.E+0,
5.81291E-3,-1.9524E-3,-7.2E+0,
5.81791E-3,6.0476E-3,-6.E+0,
5.82291E-3,4.76E-5,-7.6E+0,
5.82791E-3,6.0476E-3,-6.E+0,
5.83292E-3,4.76E-5,-7.2E+0,
5.83792E-3,6.0476E-3,-6.4E+0,
5.84292E-3,-1.9524E-3,-7.6E+0,
5.84792E-3,6.0476E-3,-6.4E+0,
5.85293E-3,2.0476E-3,-7.6E+0,
5.85793E-3,8.0476E-3,-6.4E+0,
5.86293E-3,4.76E-5,-7.6E+0,
5.86793E-3,8.0476E-3,-6.4E+0,
5.87294E-3,2.0476E-3,-7.6E+0,
5.87794E-3,8.0476E-3,-6.4E+0,
5.88294E-3,4.76E-5,-7.6E+0,
5.88794E-3,1.00476E-2,-6.4E+0,
5.89295E-3,2.0476E-3,-7.6E+0,
5.89795E-3,8.0476E-3,-6.4E+0,
5.90295E-3,2.0476E-3,-7.6E+0,
5.90795E-3,8.0476E-3,-6.4E+0,
5.91296E-3,2.0476E-3,-7.6E+0,
5.91796E-3,8.0476E-3,-6.4E+0,
5.92296E-3,2.0476E-3,-7.6E+0,
5.92796E-3,8.0476E-3,-6.4E+0,
5.93297E-3,2.0476E-3,-7.6E+0,
5.93797E-3,8.0476E-3,-6.4E+0,
5.94297E-3,2.0476E-3,-7.6E+0,
5.94797E-3,8.0476E-3,-6.E+0,
5.95298E-3,2.0476E-3,-7.6E+0,
5.95798E-3,8.0476E-3,-6.E+0,
5.96298E-3,2.0476E-3,-7.2E+0,
5.96798E-3,8.0476E-3,-6.4E+0,
5.97299E-3,4.76E-5,-7.2E+0,
5.97799E-3,8.0476E-3,-6.E+0,
5.98299E-3,2.0476E-3,-7.2E+0,
5.98799E-3,8.0476E-3,-6.E+0,
5.993E-3,2.0476E-3,-7.2E+0,
5.998E-3,8.0476E-3,-5.6E+0,
6.003E-3,4.76E-5,-6.8E+0,
6.008E-3,6.0476E-3,-5.6E+0,
6.01301E-3,4.76E-5,-6.8E+0,
6.01801E-3,6.0476E-3,-5.6E+0,
6.02301E-3,4.76E-5,-6.4E+0,
6.02801E-3,6.0476E-3,-5.2E+0,
6.03302E-3,4.76E-5,-6.4E+0,
6.03802E-3,6.0476E-3,-5.2E+0,
6.04302E-3,-1.9524E-3,-6.4E+0,
6.04802E-3,6.0476E-3,-4.8E+0,
6.05303E-3,-1.9524E-3,-6.4E+0,
6.05803E-3,4.0476E-3,-4.8E+0,
6.06303E-3,-3.9524E-3,-5.6E+0,
6.06803E-3,4.0476E-3,-4.4E+0,
6.07304E-3,-3.9524E-3,-5.6E+0,
6.07804E-3,4.0476E-3,-4.4E+0,
6.08304E-3,-3.9524E-3,-5.2E+0,
6.08804E-3,2.0476E-3,-4.E+0,
6.09305E-3,-5.9524E-3,-4.8E+0,
6.09805E-3,2.0476E-3,-3.6E+0,
6.10305E-3,-5.9524E-3,-4.8E+0,
6.10805E-3,2.0476E-3,-3.6E+0,
6.11306E-3,-7.9524E-3,-4.4E+0,
6.11806E-3,4.76E-5,-3.2E+0,
6.12306E-3,-7.9524E-3,-4.E+0,
6.12806E-3,4.76E-5,-2.8E+0,
6.13307E-3,-7.9524E-3,-3.6E+0,
6.13807E-3,4.76E-5,-2.4E+0,
6.14307E-3,-7.9524E-3,-3.6E+0,
6.14807E-3,-1.9524E-3,-2.4E+0,
6.15308E-3,-9.9524E-3,-3.2E+0,
6.15808E-3,-1.9524E-3,-2.E+0,
6.16308E-3,-9.9524E-3,-2.8E+0,
6.16808E-3,-1.9524E-3,-1.6E+0,
6.17309E-3,-1.19524E-2,-2.4E+0,
6.17809E-3,-3.9524E-3,-1.2E+0,
6.18309E-3,-1.19524E-2,-2.4E+0,
6.18809E-3,-3.9524E-3,-8.E-1,
6.1931E-3,-1.39524E-2,-1.6E+0,
6.1981E-3,-5.9524E-3,-4.E-1,
6.2031E-3,-1.39524E-2,-1.6E+0,
6.2081E-3,-5.9524E-3,-1.11022E-15,
6.21311E-3,-1.39524E-2,-1.2E+0,
6.21811E-3,-5.9524E-3,4.E-1,
6.22311E-3,-1.39524E-2,-8.E-1,
6.22811E-3,-5.9524E-3,8.E-1,
6.23312E-3,-1.39524E-2,-4.E-1,
6.23812E-3,-5.9524E-3,1.2E+0,
6.24312E-3,-1.39524E-2,-1.11022E-15,
6.24812E-3,-5.9524E-3,1.6E+0,
6.25313E-3,-1.59524E-2,4.E-1,
6.25813E-3,-7.9524E-3,1.6E+0,
6.26313E-3,-1.59524E-2,4.E-1,
6.26813E-3,-7.9524E-3,2.4E+0,
6.27314E-3,-1.39524E-2,8.E-1,
6.27814E-3,-7.9524E-3,2.8E+0,
6.28314E-3,-1.39524E-2,1.2E+0,
6.28814E-3,-7.9524E-3,2.8E+0,
6.29315E-3,-1.59524E-2,1.6E+0,
6.29815E-3,-5.9524E-3,3.2E+0,
6.30315E-3,-1.39524E-2,2.E+0,
6.30815E-3,-7.9524E-3,3.6E+0,
6.31316E-3,-1.39524E-2,2.4E+0,
6.31816E-3,-7.9524E-3,4.E+0,
6.32316E-3,-1.39524E-2,2.8E+0,
6.32816E-3,-7.9524E-3,4.4E+0,
6.33317E-3,-1.39524E-2,3.2E+0,
6.33817E-3,-7.9524E-3,4.8E+0,
6.34317E-3,-1.39524E-2,3.6E+0,
6.34817E-3,-3.9524E-3,4.8E+0,
6.35318E-3,-1.19524E-2,4.E+0,
6.35818E-3,-3.9524E-3,5.2E+0,
6.36318E-3,-9.9524E-3,4.E+0,
6.36818E-3,-3.9524E-3,5.2E+0,
6.37319E-3,-1.19524E-2,4.4E+0,
6.37819E-3,-3.9524E-3,5.6E+0,
6.38319E-3,-9.9524E-3,4.8E+0,
6.38819E-3,-3.9524E-3,6.E+0,
6.3932E-3,-9.9524E-3,4.8E+0,
6.3982E-3,-1.9524E-3,6.4E+0,
6.4032E-3,-7.9524E-3,5.2E+0,
6.4082E-3,-1.9524E-3,6.4E+0,
6.41321E-3,-7.9524E-3,5.2E+0,
6.41821E-3,-1.9524E-3,6.8E+0,
6.42321E-3,-5.9524E-3,5.6E+0,
6.42821E-3,4.76E-5,6.8E+0,
6.43322E-3,-3.9524E-3,5.6E+0,
6.43822E-3,2.0476E-3,7.2E+0,
6.44322E-3,-3.9524E-3,6.E+0,
6.44822E-3,2.0476E-3,7.2E+0,
6.45323E-3,-3.9524E-3,6.E+0,
6.45823E-3,4.0476E-3,7.2E+0,
6.46323E-3,-1.9524E-3,6.4E+0,
6.46823E-3,4.0476E-3,7.6E+0,
6.47324E-3,-3.9524E-3,6.4E+0,
6.47824E-3,4.0476E-3,7.6E+0,
6.48324E-3,-1.9524E-3,6.4E+0,
6.48824E-3,6.0476E-3,8.E+0,
6.49325E-3,4.76E-5,6.4E+0,
6.49825E-3,6.0476E-3,8.E+0,
6.50325E-3,4.76E-5,6.4E+0,
6.50825E-3,6.0476E-3,8.E+0,
6.51326E-3,4.76E-5,6.8E+0,
6.51826E-3,8.0476E-3,8.E+0,
6.52326E-3,4.76E-5,6.8E+0,
6.52826E-3,8.0476E-3,8.E+0,
6.53327E-3,2.0476E-3,6.4E+0,
6.53827E-3,8.0476E-3,8.E+0,
6.54327E-3,2.0476E-3,6.4E+0,
6.54827E-3,8.0476E-3,8.E+0,
6.55328E-3,2.0476E-3,6.4E+0,
6.55828E-3,8.0476E-3,8.E+0,
6.56328E-3,2.0476E-3,6.4E+0,
6.56828E-3,8.0476E-3,8.E+0,
6.57329E-3,4.76E-5,6.4E+0,
6.57829E-3,8.0476E-3,7.6E+0,
6.58329E-3,2.0476E-3,6.4E+0,
6.58829E-3,8.0476E-3,7.6E+0,
6.5933E-3,4.76E-5,6.E+0,
6.5983E-3,8.0476E-3,7.6E+0,
6.6033E-3,4.76E-5,6.E+0,
6.6083E-3,8.0476E-3,7.2E+0,
6.61331E-3,4.76E-5,5.6E+0,
6.61831E-3,8.0476E-3,6.8E+0,
6.62331E-3,4.76E-5,5.6E+0,
6.62831E-3,8.0476E-3,6.8E+0,
6.63332E-3,4.76E-5,5.2E+0,
6.63832E-3,6.0476E-3,6.8E+0,
6.64332E-3,4.76E-5,5.2E+0,
6.64832E-3,6.0476E-3,6.4E+0,
6.65333E-3,-1.9524E-3,4.8E+0,
6.65833E-3,6.0476E-3,6.E+0,
6.66333E-3,-1.9524E-3,4.4E+0,
6.66833E-3,4.0476E-3,6.E+0,
6.67334E-3,-3.9524E-3,4.4E+0,
6.67834E-3,4.0476E-3,5.6E+0,
6.68334E-3,-3.9524E-3,4.E+0,
6.68834E-3,2.0476E-3,5.2E+0,
6.69335E-3,-5.9524E-3,3.6E+0,
6.69835E-3,2.0476E-3,4.8E+0,
6.70335E-3,-5.9524E-3,3.6E+0,
6.70835E-3,2.0476E-3,4.8E+0,
6.71336E-3,-7.9524E-3,3.2E+0,
6.71836E-3,4.76E-5,4.4E+0,
6.72336E-3,-7.9524E-3,2.8E+0,
6.72836E-3,4.76E-5,4.E+0,
6.73337E-3,-9.9524E-3,2.4E+0,
6.73837E-3,-1.9524E-3,4.E+0,
6.74337E-3,-9.9524E-3,2.E+0,
6.74837E-3,-1.9524E-3,3.2E+0,
6.75338E-3,-9.9524E-3,1.6E+0,
6.75838E-3,-3.9524E-3,3.2E+0,
6.76338E-3,-1.19524E-2,1.2E+0,
6.76838E-3,-3.9524E-3,2.8E+0,
6.77339E-3,-1.19524E-2,8.E-1,
6.77839E-3,-3.9524E-3,2.4E+0,
6.78339E-3,-1.19524E-2,4.E-1,
6.78839E-3,-5.9524E-3,2.E+0,
6.7934E-3,-1.39524E-2,4.E-1,
6.7984E-3,-5.9524E-3,1.6E+0,
6.8034E-3,-1.39524E-2,-1.11022E-15,
6.8084E-3,-7.9524E-3,1.2E+0,
6.81341E-3,-1.59524E-2,-4.E-1,
6.81841E-3,-7.9524E-3,8.E-1,
6.82341E-3,-1.59524E-2,-8.E-1,
6.82841E-3,-9.9524E-3,4.E-1,
6.83342E-3,-1.59524E-2,-1.2E+0,
6.83842E-3,-9.9524E-3,4.E-1,
6.84342E-3,-1.59524E-2,-1.6E+0,
6.84842E-3,-7.9524E-3,-4.E-1,
6.85343E-3,-1.79524E-2,-2.E+0,
6.85843E-3,-9.9524E-3,-8.E-1,
6.86343E-3,-1.59524E-2,-2.4E+0,
6.86843E-3,-7.9524E-3,-8.E-1,
6.87344E-3,-1.79524E-2,-2.4E+0,
6.87844E-3,-9.9524E-3,-1.2E+0,
6.88344E-3,-1.59524E-2,-2.8E+0,
6.88844E-3,-7.9524E-3,-1.6E+0,
6.89345E-3,-1.59524E-2,-3.2E+0,
6.89845E-3,-7.9524E-3,-2.E+0,
6.90345E-3,-1.79524E-2,-3.6E+0,
6.90845E-3,-7.9524E-3,-2.4E+0,
6.91346E-3,-1.79524E-2,-4.E+0,
6.91846E-3,-9.9524E-3,-2.8E+0,
6.92346E-3,-1.59524E-2,-4.4E+0,
6.92846E-3,-7.9524E-3,-2.8E+0,
6.93347E-3,-1.59524E-2,-4.4E+0,
6.93847E-3,-9.9524E-3,-3.2E+0,
6.94347E-3,-1.59524E-2,-4.8E+0,
6.94847E-3,-5.9524E-3,-3.6E+0,
6.95348E-3,-1.59524E-2,-5.2E+0,
6.95848E-3,-7.9524E-3,-3.6E+0,
6.96348E-3,-1.59524E-2,-5.2E+0,
6.96848E-3,-7.9524E-3,-4.E+0,
6.97349E-3,-1.39524E-2,-5.6E+0,
6.97849E-3,-5.9524E-3,-4.4E+0,
6.98349E-3,-1.39524E-2,-6.E+0,
6.98849E-3,-7.9524E-3,-4.8E+0,
6.9935E-3,-1.19524E-2,-6.E+0,
6.9985E-3,-5.9524E-3,-4.8E+0,
7.0035E-3,-1.19524E-2,-6.4E+0,
7.0085E-3,-5.9524E-3,-5.2E+0,
7.01351E-3,-9.9524E-3,-6.4E+0,
7.01851E-3,-3.9524E-3,-5.2E+0,
7.02351E-3,-9.9524E-3,-6.8E+0,
7.02851E-3,-3.9524E-3,-5.6E+0,
7.03352E-3,-9.9524E-3,-6.8E+0,
7.03852E-3,-1.9524E-3,-5.6E+0,
7.04352E-3,-9.9524E-3,-7.2E+0,
7.04852E-3,-1.9524E-3,-5.6E+0,
7.05353E-3,-9.9524E-3,-7.2E+0,
7.05853E-3,-1.9524E-3,-6.E+0,
7.06353E-3,-7.9524E-3,-7.2E+0,
7.06853E-3,4.76E-5,-6.E+0,
7.07354E-3,-7.9524E-3,-7.2E+0,
7.07854E-3,4.76E-5,-6.E+0,
7.08354E-3,-5.9524E-3,-7.2E+0,
7.08854E-3,4.76E-5,-6.E+0,
7.09355E-3,-5.9524E-3,-7.6E+0,
7.09855E-3,2.0476E-3,-6.4E+0,
7.10355E-3,-5.9524E-3,-7.6E+0,
7.10855E-3,4.76E-5,-6.4E+0,
7.11356E-3,-5.9524E-3,-7.6E+0,
7.11856E-3,2.0476E-3,-6.4E+0,
7.12356E-3,-3.9524E-3,-7.6E+0,
7.12856E-3,2.0476E-3,-6.4E+0,
7.13357E-3,-3.9524E-3,-7.6E+0,
7.13857E-3,4.0476E-3,-6.4E+0,
7.14357E-3,-3.9524E-3,-7.6E+0,
7.14857E-3,4.0476E-3,-6.4E+0,
7.15358E-3,-3.9524E-3,-7.6E+0,
7.15858E-3,4.0476E-3,-6.4E+0,
7.16358E-3,-3.9524E-3,-7.6E+0,
7.16858E-3,2.0476E-3,-6.4E+0,
7.17359E-3,-3.9524E-3,-7.6E+0,
7.17859E-3,2.0476E-3,-6.4E+0,
7.18359E-3,-3.9524E-3,-7.6E+0,
7.18859E-3,4.0476E-3,-6.4E+0,
7.1936E-3,-1.9524E-3,-7.6E+0,
7.1986E-3,4.0476E-3,-6.4E+0,
7.2036E-3,-3.9524E-3,-7.6E+0,
7.2086E-3,4.0476E-3,-6.4E+0,
7.21361E-3,-1.9524E-3,-7.6E+0,
7.21861E-3,4.0476E-3,-6.E+0,
7.22361E-3,-3.9524E-3,-7.2E+0,
7.22861E-3,4.0476E-3,-6.E+0,
7.23362E-3,-3.9524E-3,-7.2E+0,
7.23862E-3,2.0476E-3,-6.E+0,
7.24362E-3,-3.9524E-3,-7.2E+0,
7.24862E-3,4.0476E-3,-6.E+0,
7.25363E-3,-3.9524E-3,-6.8E+0,
7.25863E-3,2.0476E-3,-5.6E+0,
7.26363E-3,-3.9524E-3,-6.8E+0,
7.26863E-3,2.0476E-3,-5.6E+0,
7.27364E-3,-3.9524E-3,-6.8E+0,
7.27864E-3,2.0476E-3,-5.2E+0,
7.28364E-3,-3.9524E-3,-6.8E+0,
7.28864E-3,2.0476E-3,-5.2E+0,
7.29365E-3,-5.9524E-3,-6.4E+0,
7.29865E-3,4.76E-5,-5.2E+0,
7.30365E-3,-5.9524E-3,-6.E+0,
7.30865E-3,4.76E-5,-4.8E+0,
7.31366E-3,-5.9524E-3,-6.E+0,
7.31866E-3,4.76E-5,-4.8E+0,
7.32366E-3,-7.9524E-3,-5.6E+0,
7.32866E-3,4.76E-5,-4.4E+0,
7.33367E-3,-7.9524E-3,-5.2E+0,
7.33867E-3,4.76E-5,-4.E+0,
7.34367E-3,-7.9524E-3,-5.2E+0,
7.34867E-3,-1.9524E-3,-3.6E+0,
7.35368E-3,-9.9524E-3,-4.8E+0,
7.35868E-3,-1.9524E-3,-3.6E+0,
7.36368E-3,-9.9524E-3,-4.4E+0,
7.36868E-3,-3.9524E-3,-3.2E+0,
7.37369E-3,-1.19524E-2,-4.E+0,
7.37869E-3,-3.9524E-3,-2.8E+0,
7.38369E-3,-1.19524E-2,-4.E+0,
7.38869E-3,-3.9524E-3,-2.4E+0,
7.3937E-3,-1.19524E-2,-3.6E+0,
7.3987E-3,-5.9524E-3,-2.4E+0,
7.4037E-3,-1.39524E-2,-3.2E+0,
7.4087E-3,-5.9524E-3,-2.E+0,
7.41371E-3,-1.39524E-2,-2.8E+0,
7.41871E-3,-5.9524E-3,-1.6E+0,
7.42371E-3,-1.39524E-2,-2.4E+0,
7.42871E-3,-7.9524E-3,-1.2E+0,
7.43372E-3,-1.59524E-2,-2.4E+0,
7.43872E-3,-5.9524E-3,-8.E-1,
7.44372E-3,-1.59524E-2,-2.E+0,
7.44872E-3,-7.9524E-3,-4.E-1,
7.45373E-3,-1.59524E-2,-1.6E+0,
7.45873E-3,-7.9524E-3,-1.11022E-15,
7.46373E-3,-1.59524E-2,-1.2E+0,
7.46873E-3,-7.9524E-3,-1.11022E-15,
7.47374E-3,-1.59524E-2,-1.2E+0,
7.47874E-3,-7.9524E-3,4.E-1,
7.48374E-3,-1.59524E-2,-4.E-1,
7.48874E-3,-9.9524E-3,8.E-1,
7.49375E-3,-1.59524E-2,-1.11022E-15,
7.49875E-3,-9.9524E-3,1.2E+0,
7.50375E-3,-1.79524E-2,4.E-1,
7.50875E-3,-7.9524E-3,1.6E+0,
7.51376E-3,-1.79524E-2,8.E-1,
7.51876E-3,-9.9524E-3,2.E+0,
7.52376E-3,-1.79524E-2,8.E-1,
7.52876E-3,-9.9524E-3,2.E+0,
7.53377E-3,-1.79524E-2,1.2E+0,
7.53877E-3,-9.9524E-3,2.8E+0,
7.54377E-3,-1.59524E-2,1.6E+0,
7.54877E-3,-7.9524E-3,3.2E+0,
7.55378E-3,-1.39524E-2,2.E+0,
7.55878E-3,-7.9524E-3,3.2E+0,
7.56378E-3,-1.59524E-2,2.4E+0,
7.56878E-3,-7.9524E-3,3.6E+0,
7.57379E-3,-1.59524E-2,2.8E+0,
7.57879E-3,-7.9524E-3,4.E+0,
7.58379E-3,-1.39524E-2,2.8E+0,
7.58879E-3,-7.9524E-3,4.4E+0,
7.5938E-3,-1.39524E-2,3.2E+0,
7.5988E-3,-5.9524E-3,4.4E+0,
7.6038E-3,-1.19524E-2,3.6E+0,
7.6088E-3,-5.9524E-3,4.8E+0,
7.61381E-3,-1.19524E-2,4.E+0,
7.61881E-3,-3.9524E-3,5.2E+0,
7.62381E-3,-9.9524E-3,4.4E+0,
7.62881E-3,-3.9524E-3,5.6E+0,
7.63382E-3,-9.9524E-3,4.4E+0,
7.63882E-3,-1.9524E-3,5.6E+0,
7.64382E-3,-9.9524E-3,4.8E+0,
7.64882E-3,-1.9524E-3,6.E+0,
7.65383E-3,-7.9524E-3,4.8E+0,
7.65883E-3,4.76E-5,6.4E+0,
7.66383E-3,-7.9524E-3,4.8E+0,
7.66883E-3,4.76E-5,6.4E+0,
7.67384E-3,-5.9524E-3,5.6E+0,
7.67884E-3,4.76E-5,6.8E+0,
7.68384E-3,-3.9524E-3,5.6E+0,
7.68884E-3,4.76E-5,7.2E+0,
7.69385E-3,-3.9524E-3,6.E+0,
7.69885E-3,2.0476E-3,7.2E+0,
7.70385E-3,-3.9524E-3,6.E+0,
7.70885E-3,2.0476E-3,7.2E+0,
7.71386E-3,-1.9524E-3,6.4E+0,
7.71886E-3,4.0476E-3,7.6E+0,
7.72386E-3,-1.9524E-3,6.4E+0,
7.72886E-3,6.0476E-3,7.6E+0,
7.73387E-3,-1.9524E-3,6.4E+0,
7.73887E-3,6.0476E-3,7.6E+0,
7.74387E-3,4.76E-5,6.4E+0,
7.74887E-3,6.0476E-3,7.6E+0,
7.75388E-3,4.76E-5,6.8E+0,
7.75888E-3,8.0476E-3,7.6E+0,
7.76388E-3,4.76E-5,6.8E+0,
7.76888E-3,8.0476E-3,8.E+0,
7.77389E-3,2.0476E-3,6.8E+0,
7.77889E-3,8.0476E-3,8.E+0,
7.78389E-3,2.0476E-3,6.8E+0,
7.78889E-3,1.00476E-2,8.E+0,
7.7939E-3,4.0476E-3,6.8E+0,
7.7989E-3,1.00476E-2,8.E+0,
7.8039E-3,4.0476E-3,6.8E+0,
7.8089E-3,1.00476E-2,8.E+0,
7.81391E-3,4.0476E-3,6.4E+0,
7.81891E-3,1.00476E-2,7.6E+0,
7.82391E-3,4.0476E-3,6.4E+0,
7.82891E-3,1.00476E-2,7.6E+0,
7.83392E-3,2.0476E-3,6.4E+0,
7.83892E-3,1.00476E-2,7.6E+0,
7.84392E-3,2.0476E-3,6.4E+0,
7.84892E-3,1.00476E-2,7.6E+0,
7.85393E-3,4.0476E-3,6.E+0,
7.85893E-3,1.00476E-2,7.6E+0,
7.86393E-3,2.0476E-3,6.E+0,
7.86893E-3,1.00476E-2,7.2E+0,
7.87394E-3,2.0476E-3,5.6E+0,
7.87894E-3,1.00476E-2,6.8E+0,
7.88394E-3,4.76E-5,5.2E+0,
7.88894E-3,8.0476E-3,6.8E+0,
7.89395E-3,2.0476E-3,5.2E+0,
7.89895E-3,8.0476E-3,6.4E+0,
7.90395E-3,4.76E-5,4.8E+0,
7.90895E-3,8.0476E-3,6.4E+0,
7.91396E-3,4.76E-5,4.8E+0,
7.91896E-3,6.0476E-3,6.E+0,
7.92396E-3,-1.9524E-3,4.4E+0,
7.92896E-3,6.0476E-3,5.6E+0,
7.93397E-3,-1.9524E-3,4.E+0,
7.93897E-3,6.0476E-3,5.6E+0,
7.94397E-3,-1.9524E-3,3.6E+0,
7.94897E-3,4.0476E-3,5.2E+0,
7.95398E-3,-3.9524E-3,3.6E+0,
7.95898E-3,4.0476E-3,4.8E+0,
7.96398E-3,-3.9524E-3,3.2E+0,
7.96898E-3,2.0476E-3,4.8E+0,
7.97399E-3,-5.9524E-3,2.8E+0,
7.97899E-3,2.0476E-3,4.4E+0,
7.98399E-3,-5.9524E-3,2.4E+0,
7.98899E-3,4.76E-5,4.E+0,
7.994E-3,-7.9524E-3,2.E+0,
7.999E-3,4.76E-5,3.6E+0,
8.004E-3,-7.9524E-3,1.6E+0,
8.009E-3,4.76E-5,3.2E+0,
8.01401E-3,-7.9524E-3,1.2E+0,
8.01901E-3,-1.9524E-3,2.8E+0,
8.02401E-3,-9.9524E-3,1.2E+0,
8.02901E-3,-1.9524E-3,2.4E+0,
8.03402E-3,-9.9524E-3,8.E-1,
8.03902E-3,-3.9524E-3,2.E+0,
8.04402E-3,-1.19524E-2,4.E-1,
8.04902E-3,-3.9524E-3,1.6E+0,
8.05403E-3,-1.39524E-2,-1.11022E-15,
8.05903E-3,-5.9524E-3,1.2E+0,
8.06403E-3,-1.19524E-2,-4.E-1,
8.06903E-3,-5.9524E-3,8.E-1,
8.07404E-3,-1.19524E-2,-8.E-1,
8.07904E-3,-5.9524E-3,8.E-1,
8.08404E-3,-1.39524E-2,-1.2E+0,
8.08904E-3,-5.9524E-3,4.E-1,
8.09405E-3,-1.39524E-2,-1.6E+0,
8.09905E-3,-7.9524E-3,-1.11022E-15,
8.10405E-3,-1.59524E-2,-2.E+0,
8.10905E-3,-7.9524E-3,-4.E-1,
8.11406E-3,-1.59524E-2,-2.E+0,
8.11906E-3,-7.9524E-3,-8.E-1,
8.12406E-3,-1.59524E-2,-2.4E+0,
8.12906E-3,-7.9524E-3,-1.2E+0,
8.13407E-3,-1.59524E-2,-2.8E+0,
8.13907E-3,-7.9524E-3,-1.6E+0,
8.14407E-3,-1.59524E-2,-3.2E+0,
8.14907E-3,-7.9524E-3,-2.E+0,
8.15408E-3,-1.59524E-2,-3.2E+0,
8.15908E-3,-7.9524E-3,-2.E+0,
8.16408E-3,-1.59524E-2,-3.6E+0,
8.16908E-3,-7.9524E-3,-2.4E+0,
8.17409E-3,-1.39524E-2,-4.E+0,
8.17909E-3,-7.9524E-3,-2.8E+0,
8.18409E-3,-1.39524E-2,-4.4E+0,
8.18909E-3,-7.9524E-3,-2.8E+0,
8.1941E-3,-1.59524E-2,-4.8E+0,
8.1991E-3,-7.9524E-3,-3.2E+0,
8.2041E-3,-1.39524E-2,-5.2E+0,
8.2091E-3,-7.9524E-3,-3.6E+0,
8.21411E-3,-1.59524E-2,-5.2E+0,
8.21911E-3,-7.9524E-3,-4.E+0,
8.22411E-3,-1.39524E-2,-5.6E+0,
8.22911E-3,-5.9524E-3,-4.E+0,
8.23412E-3,-1.19524E-2,-5.6E+0,
8.23912E-3,-5.9524E-3,-4.4E+0,
8.24412E-3,-1.19524E-2,-6.E+0,
8.24912E-3,-5.9524E-3,-4.4E+0,
8.25413E-3,-1.19524E-2,-6.E+0,
8.25913E-3,-5.9524E-3,-4.8E+0,
8.26413E-3,-1.19524E-2,-6.4E+0,
8.26913E-3,-3.9524E-3,-5.2E+0,
8.27414E-3,-9.9524E-3,-6.4E+0,
8.27914E-3,-3.9524E-3,-5.2E+0,
8.28414E-3,-9.9524E-3,-6.8E+0,
8.28914E-3,-3.9524E-3,-5.6E+0,
8.29415E-3,-7.9524E-3,-6.8E+0,
8.29915E-3,-3.9524E-3,-5.6E+0,
8.30415E-3,-9.9524E-3,-7.2E+0,
8.30915E-3,-3.9524E-3,-6.E+0,
8.31416E-3,-7.9524E-3,-7.2E+0,
8.31916E-3,-1.9524E-3,-6.E+0,
8.32416E-3,-7.9524E-3,-7.2E+0,
8.32916E-3,4.76E-5,-6.E+0,
8.33417E-3,-7.9524E-3,-7.2E+0,
8.33917E-3,-1.9524E-3,-6.E+0,
8.34417E-3,-5.9524E-3,-7.6E+0,
8.34917E-3,4.76E-5,-6.4E+0,
8.35418E-3,-5.9524E-3,-7.6E+0,
8.35918E-3,4.76E-5,-6.4E+0,
8.36418E-3,-7.9524E-3,-7.6E+0,
8.36918E-3,4.76E-5,-6.4E+0,
8.37419E-3,-5.9524E-3,-7.6E+0,
8.37919E-3,2.0476E-3,-6.4E+0,
8.38419E-3,-5.9524E-3,-7.6E+0,
8.38919E-3,2.0476E-3,-6.4E+0,
8.3942E-3,-5.9524E-3,-7.6E+0,
8.3992E-3,2.0476E-3,-6.4E+0,
8.4042E-3,-3.9524E-3,-7.6E+0,
8.4092E-3,4.76E-5,-6.4E+0,
8.41421E-3,-5.9524E-3,-7.6E+0,
8.41921E-3,2.0476E-3,-6.4E+0,
8.42421E-3,-5.9524E-3,-7.6E+0,
8.42921E-3,2.0476E-3,-6.4E+0,
8.43422E-3,-3.9524E-3,-7.6E+0,
8.43922E-3,4.76E-5,-6.4E+0,
8.44422E-3,-5.9524E-3,-7.6E+0,
8.44922E-3,2.0476E-3,-6.4E+0,
8.45423E-3,-5.9524E-3,-7.6E+0,
8.45923E-3,4.76E-5,-6.4E+0,
8.46423E-3,-5.9524E-3,-7.6E+0,
8.46923E-3,4.76E-5,-6.4E+0,
8.47424E-3,-5.9524E-3,-7.2E+0,
8.47924E-3,2.0476E-3,-6.E+0,
8.48424E-3,-5.9524E-3,-7.2E+0,
8.48924E-3,4.76E-5,-6.E+0,
8.49425E-3,-5.9524E-3,-7.2E+0,
8.49925E-3,4.76E-5,-6.E+0,
8.50425E-3,-5.9524E-3,-7.2E+0,
8.50925E-3,4.76E-5,-5.6E+0,
8.51426E-3,-7.9524E-3,-6.8E+0,
8.51926E-3,4.76E-5,-5.6E+0,
8.52426E-3,-7.9524E-3,-6.8E+0,
8.52926E-3,-1.9524E-3,-5.6E+0,
8.53427E-3,-7.9524E-3,-6.8E+0,
8.53927E-3,-1.9524E-3,-5.6E+0,
8.54427E-3,-7.9524E-3,-6.4E+0,
8.54927E-3,-1.9524E-3,-5.2E+0,
8.55428E-3,-7.9524E-3,-6.4E+0,
8.55928E-3,-1.9524E-3,-4.8E+0,
8.56428E-3,-9.9524E-3,-6.E+0,
8.56928E-3,-3.9524E-3,-4.8E+0,
8.57429E-3,-9.9524E-3,-5.6E+0,
8.57929E-3,-3.9524E-3,-4.4E+0,
8.58429E-3,-1.19524E-2,-5.6E+0,
8.58929E-3,-3.9524E-3,-4.4E+0,
8.5943E-3,-1.19524E-2,-5.2E+0,
8.5993E-3,-5.9524E-3,-4.E+0,
8.6043E-3,-1.39524E-2,-4.8E+0,
8.6093E-3,-5.9524E-3,-3.6E+0,
8.61431E-3,-1.39524E-2,-4.8E+0,
8.61931E-3,-7.9524E-3,-3.2E+0,
8.62431E-3,-1.39524E-2,-4.4E+0,
8.62931E-3,-7.9524E-3,-3.2E+0,
8.63432E-3,-1.59524E-2,-4.E+0,
8.63932E-3,-7.9524E-3,-2.8E+0,
8.64432E-3,-1.59524E-2,-3.6E+0,
8.64932E-3,-7.9524E-3,-2.4E+0,
8.65433E-3,-1.79524E-2,-3.6E+0,
8.65933E-3,-9.9524E-3,-2.E+0,
8.66433E-3,-1.79524E-2,-3.2E+0,
8.66933E-3,-9.9524E-3,-2.E+0,
8.67434E-3,-1.79524E-2,-2.8E+0,
8.67934E-3,-9.9524E-3,-1.6E+0,
8.68434E-3,-1.79524E-2,-2.4E+0,
8.68934E-3,-1.19524E-2,-8.E-1,
8.69435E-3,-1.99524E-2,-2.E+0,
8.69935E-3,-1.19524E-2,-8.E-1,
8.70435E-3,-1.99524E-2,-2.E+0,
8.70935E-3,-1.19524E-2,-4.E-1,
8.71436E-3,-1.99524E-2,-1.6E+0,
8.71936E-3,-1.39524E-2,-1.11022E-15,
8.72436E-3,-2.19524E-2,-1.2E+0,
8.72936E-3,-1.39524E-2,4.E-1,
8.73437E-3,-2.19524E-2,-8.E-1,
8.73937E-3,-1.39524E-2,8.E-1,
8.74437E-3,-1.99524E-2,-4.E-1,
8.74937E-3,-1.39524E-2,1.2E+0,
8.75438E-3,-2.19524E-2,-1.11022E-15,
8.75938E-3,-1.59524E-2,1.2E+0,
8.76438E-3,-2.19524E-2,4.E-1,
8.76938E-3,-1.59524E-2,1.6E+0,
8.77439E-3,-1.99524E-2,8.E-1,
8.77939E-3,-1.39524E-2,2.E+0,
8.78439E-3,-2.19524E-2,1.2E+0,
8.78939E-3,-1.39524E-2,2.4E+0,
8.7944E-3,-2.19524E-2,1.2E+0,
8.7994E-3,-1.59524E-2,2.8E+0,
8.8044E-3,-2.19524E-2,1.6E+0,
8.8094E-3,-1.39524E-2,3.2E+0,
8.81441E-3,-2.19524E-2,2.E+0,
8.81941E-3,-1.39524E-2,3.6E+0,
8.82441E-3,-1.99524E-2,2.4E+0,
8.82941E-3,-1.19524E-2,4.E+0,
8.83442E-3,-1.99524E-2,2.8E+0,
8.83942E-3,-1.19524E-2,4.4E+0,
8.84442E-3,-1.99524E-2,3.2E+0,
8.84942E-3,-1.39524E-2,4.8E+0,
8.85443E-3,-1.99524E-2,3.6E+0,
8.85943E-3,-1.19524E-2,4.8E+0,
8.86443E-3,-1.79524E-2,4.E+0,
8.86943E-3,-9.9524E-3,5.2E+0,
8.87444E-3,-1.79524E-2,4.E+0,
8.87944E-3,-9.9524E-3,5.2E+0,
8.88444E-3,-1.59524E-2,4.4E+0,
8.88944E-3,-9.9524E-3,5.6E+0,
8.89445E-3,-1.59524E-2,4.8E+0,
8.89945E-3,-9.9524E-3,6.E+0,
8.90445E-3,-1.59524E-2,4.8E+0,
8.90945E-3,-9.9524E-3,6.4E+0,
8.91446E-3,-1.39524E-2,5.2E+0,
8.91946E-3,-5.9524E-3,6.4E+0,
8.92446E-3,-1.39524E-2,5.2E+0,
8.92946E-3,-5.9524E-3,6.8E+0,
8.93447E-3,-1.19524E-2,5.6E+0,
8.93947E-3,-5.9524E-3,6.8E+0,
8.94447E-3,-1.19524E-2,5.6E+0,
8.94947E-3,-3.9524E-3,7.2E+0,
8.95448E-3,-9.9524E-3,6.E+0,
8.95948E-3,-3.9524E-3,7.2E+0,
8.96448E-3,-9.9524E-3,6.E+0,
8.96948E-3,-1.9524E-3,7.2E+0,
8.97449E-3,-9.9524E-3,6.4E+0,
8.97949E-3,-1.9524E-3,7.6E+0,
8.98449E-3,-7.9524E-3,6.4E+0,
8.98949E-3,-1.9524E-3,7.6E+0,
8.9945E-3,-7.9524E-3,6.4E+0,
8.9995E-3,4.76E-5,7.6E+0,
9.0045E-3,-5.9524E-3,6.4E+0,
9.0095E-3,4.76E-5,7.6E+0,
9.01451E-3,-5.9524E-3,6.4E+0,
9.01951E-3,4.76E-5,8.E+0,
9.02451E-3,-5.9524E-3,6.8E+0,
9.02951E-3,2.0476E-3,8.E+0,
9.03452E-3,-5.9524E-3,6.8E+0,
9.03952E-3,4.76E-5,8.E+0,
9.04452E-3,-5.9524E-3,6.8E+0,
9.04952E-3,4.76E-5,8.E+0,
9.05453E-3,-3.9524E-3,6.8E+0,
9.05953E-3,2.0476E-3,8.E+0,
9.06453E-3,-5.9524E-3,6.8E+0,
9.06953E-3,2.0476E-3,8.E+0,
9.07454E-3,-3.9524E-3,6.4E+0,
9.07954E-3,2.0476E-3,7.6E+0,
9.08454E-3,-3.9524E-3,6.4E+0,
9.08954E-3,2.0476E-3,7.6E+0,
9.09455E-3,-3.9524E-3,6.4E+0,
9.09955E-3,2.0476E-3,7.6E+0,
9.10455E-3,-3.9524E-3,6.E+0,
9.10955E-3,2.0476E-3,7.2E+0,
9.11456E-3,-5.9524E-3,6.E+0,
9.11956E-3,4.76E-5,7.2E+0,
9.12456E-3,-5.9524E-3,5.6E+0,
9.12956E-3,2.0476E-3,6.8E+0,
9.13457E-3,-5.9524E-3,5.6E+0,
9.13957E-3,4.76E-5,6.8E+0,
9.14457E-3,-7.9524E-3,5.2E+0,
9.14957E-3,4.76E-5,6.4E+0,
9.15458E-3,-5.9524E-3,5.2E+0,
9.15958E-3,4.76E-5,6.4E+0,
9.16458E-3,-7.9524E-3,4.8E+0,
9.16958E-3,-1.9524E-3,6.4E+0,
9.17459E-3,-9.9524E-3,4.4E+0,
9.17959E-3,-1.9524E-3,5.6E+0,
9.18459E-3,-9.9524E-3,4.4E+0,
9.18959E-3,-1.9524E-3,5.6E+0,
9.1946E-3,-9.9524E-3,4.E+0,
9.1996E-3,-3.9524E-3,5.2E+0,
9.2046E-3,-1.39524E-2,3.6E+0,
9.2096E-3,-5.9524E-3,4.8E+0,
9.21461E-3,-1.19524E-2,3.2E+0,
9.21961E-3,-5.9524E-3,4.4E+0,
9.22461E-3,-1.39524E-2,3.2E+0,
9.22961E-3,-5.9524E-3,4.4E+0,
9.23462E-3,-1.39524E-2,2.8E+0,
9.23962E-3,-5.9524E-3,4.E+0,
9.24462E-3,-1.39524E-2,2.E+0,
9.24962E-3,-7.9524E-3,3.6E+0,
9.25463E-3,-1.79524E-2,2.E+0,
9.25963E-3,-9.9524E-3,3.2E+0,
9.26463E-3,-1.79524E-2,1.6E+0,
9.26963E-3,-1.19524E-2,3.2E+0,
9.27464E-3,-1.79524E-2,1.2E+0,
9.27964E-3,-1.19524E-2,2.8E+0,
9.28464E-3,-1.99524E-2,8.E-1,
9.28964E-3,-1.19524E-2,2.4E+0,
9.29465E-3,-2.19524E-2,4.E-1,
9.29965E-3,-1.39524E-2,2.E+0,
9.30465E-3,-2.19524E-2,-1.11022E-15,
9.30965E-3,-1.39524E-2,1.6E+0,
9.31466E-3,-2.39524E-2,-1.11022E-15,
9.31966E-3,-1.59524E-2,1.2E+0,
9.32466E-3,-2.39524E-2,-4.E-1,
9.32966E-3,-1.59524E-2,8.E-1,
9.33467E-3,-2.39524E-2,-8.E-1,
9.33967E-3,-1.59524E-2,4.E-1,
9.34467E-3,-2.39524E-2,-1.2E+0,
9.34967E-3,-1.79524E-2,-1.11022E-15,
9.35468E-3,-2.59524E-2,-1.6E+0,
9.35968E-3,-1.79524E-2,-1.11022E-15,
9.36468E-3,-2.59524E-2,-2.E+0,
9.36968E-3,-1.79524E-2,-8.E-1,
9.37469E-3,-2.59524E-2,-2.4E+0,
9.37969E-3,-1.79524E-2,-8.E-1,
9.38469E-3,-2.59524E-2,-2.8E+0,
9.38969E-3,-1.79524E-2,-1.2E+0,
9.3947E-3,-2.59524E-2,-2.8E+0,
9.3997E-3,-1.99524E-2,-1.6E+0,
9.4047E-3,-2.79524E-2,-3.2E+0,
9.4097E-3,-1.99524E-2,-2.E+0,
9.41471E-3,-2.59524E-2,-3.6E+0,
9.41971E-3,-1.79524E-2,-2.4E+0,
9.42471E-3,-2.59524E-2,-4.E+0,
9.42971E-3,-1.99524E-2,-2.4E+0,
9.43472E-3,-2.79524E-2,-4.4E+0,
9.43972E-3,-1.79524E-2,-2.8E+0,
9.44472E-3,-2.59524E-2,-4.4E+0,
9.44972E-3,-1.99524E-2,-3.2E+0,
9.45473E-3,-2.59524E-2,-4.8E+0,
9.45973E-3,-1.79524E-2,-3.6E+0,
9.46473E-3,-2.59524E-2,-5.2E+0,
9.46973E-3,-1.79524E-2,-3.6E+0,
9.47474E-3,-2.59524E-2,-5.6E+0,
9.47974E-3,-1.79524E-2,-4.E+0,
9.48474E-3,-2.39524E-2,-5.6E+0,
9.48974E-3,-1.59524E-2,-4.4E+0,
9.49475E-3,-2.39524E-2,-6.E+0,
9.49975E-3,-1.79524E-2,-4.4E+0,
9.50475E-3,-2.19524E-2,-6.E+0,
9.50975E-3,-1.59524E-2,-4.8E+0,
9.51476E-3,-2.19524E-2,-6.4E+0,
9.51976E-3,-1.59524E-2,-5.2E+0,
9.52476E-3,-2.19524E-2,-6.4E+0,
9.52976E-3,-1.39524E-2,-5.2E+0,
9.53477E-3,-2.19524E-2,-6.8E+0,
9.53977E-3,-1.39524E-2,-5.6E+0,
9.54477E-3,-1.99524E-2,-6.8E+0,
9.54977E-3,-1.39524E-2,-5.6E+0,
9.55478E-3,-2.19524E-2,-6.8E+0,
9.55978E-3,-1.39524E-2,-5.6E+0,
9.56478E-3,-1.99524E-2,-7.2E+0,
9.56978E-3,-1.19524E-2,-6.E+0,
9.57479E-3,-1.79524E-2,-7.2E+0,
9.57979E-3,-9.9524E-3,-6.E+0,
9.58479E-3,-1.79524E-2,-7.2E+0,
9.58979E-3,-9.9524E-3,-6.E+0,
9.5948E-3,-1.79524E-2,-7.2E+0,
9.5998E-3,-9.9524E-3,-6.4E+0,
9.6048E-3,-1.59524E-2,-7.6E+0,
9.6098E-3,-9.9524E-3,-6.4E+0,
9.61481E-3,-1.59524E-2,-7.6E+0,
9.61981E-3,-9.9524E-3,-6.4E+0,
9.62481E-3,-1.59524E-2,-7.6E+0,
9.62981E-3,-9.9524E-3,-6.4E+0,
9.63482E-3,-1.59524E-2,-7.6E+0,
9.63982E-3,-7.9524E-3,-6.4E+0,
9.64482E-3,-1.59524E-2,-7.6E+0,
9.64982E-3,-7.9524E-3,-6.E+0,
9.65483E-3,-1.59524E-2,-7.6E+0,
9.65983E-3,-7.9524E-3,-6.4E+0,
9.66483E-3,-1.59524E-2,-7.6E+0,
9.66983E-3,-7.9524E-3,-6.4E+0,
9.67484E-3,-1.39524E-2,-7.6E+0,
9.67984E-3,-7.9524E-3,-6.4E+0,
9.68484E-3,-1.39524E-2,-7.6E+0,
9.68984E-3,-7.9524E-3,-6.4E+0,
9.69485E-3,-1.59524E-2,-7.6E+0,
9.69985E-3,-7.9524E-3,-6.4E+0,
9.70485E-3,-1.59524E-2,-7.6E+0,
9.70985E-3,-7.9524E-3,-6.4E+0,
9.71486E-3,-1.59524E-2,-7.6E+0,
9.71986E-3,-7.9524E-3,-6.4E+0,
9.72486E-3,-1.59524E-2,-7.6E+0,
9.72986E-3,-7.9524E-3,-6.E+0,
9.73487E-3,-1.59524E-2,-7.2E+0,
9.73987E-3,-7.9524E-3,-6.E+0,
9.74487E-3,-1.59524E-2,-7.2E+0,
9.74987E-3,-7.9524E-3,-6.E+0,
9.75488E-3,-1.59524E-2,-7.2E+0,
9.75988E-3,-7.9524E-3,-5.6E+0,
9.76488E-3,-1.59524E-2,-7.2E+0,
9.76988E-3,-7.9524E-3,-5.6E+0,
9.77489E-3,-1.59524E-2,-6.8E+0,
9.77989E-3,-7.9524E-3,-5.6E+0,
9.78489E-3,-1.59524E-2,-6.8E+0,
9.78989E-3,-9.9524E-3,-5.6E+0,
9.7949E-3,-1.79524E-2,-6.4E+0,
9.7999E-3,-9.9524E-3,-5.2E+0,
9.8049E-3,-1.79524E-2,-6.4E+0,
9.8099E-3,-9.9524E-3,-5.2E+0,
9.81491E-3,-1.79524E-2,-6.E+0,
9.81991E-3,-1.19524E-2,-4.8E+0,
9.82491E-3,-1.79524E-2,-6.E+0,
9.82991E-3,-1.19524E-2,-4.8E+0,
9.83492E-3,-1.99524E-2,-5.6E+0,
9.83992E-3,-1.19524E-2,-4.4E+0,
9.84492E-3,-1.99524E-2,-5.2E+0,
9.84992E-3,-1.19524E-2,-4.E+0,
9.85493E-3,-2.19524E-2,-4.8E+0,
9.85993E-3,-1.19524E-2,-4.E+0,
9.86493E-3,-2.19524E-2,-4.8E+0,
9.86993E-3,-1.59524E-2,-3.6E+0,
9.87494E-3,-2.19524E-2,-4.4E+0,
9.87994E-3,-1.59524E-2,-3.2E+0,
9.88494E-3,-2.39524E-2,-4.E+0,
9.88994E-3,-1.59524E-2,-2.8E+0,
9.89495E-3,-2.39524E-2,-4.E+0,
9.89995E-3,-1.79524E-2,-2.8E+0,
9.90495E-3,-2.59524E-2,-3.6E+0,
9.90995E-3,-1.79524E-2,-2.E+0,
9.91496E-3,-2.59524E-2,-3.2E+0,
9.91996E-3,-1.79524E-2,-2.E+0,
9.92496E-3,-2.59524E-2,-2.8E+0,
9.92996E-3,-1.79524E-2,-1.6E+0,
9.93497E-3,-2.59524E-2,-2.8E+0,
9.93997E-3,-1.79524E-2,-1.2E+0,
9.94497E-3,-2.59524E-2,-2.4E+0,
9.94997E-3,-1.99524E-2,-8.E-1,
9.95498E-3,-2.79524E-2,-2.E+0,
9.95998E-3,-1.99524E-2,-4.E-1,
9.96498E-3,-2.79524E-2,-1.6E+0,
9.96998E-3,-2.19524E-2,-1.11022E-15,
9.97499E-3,-2.79524E-2,-1.2E+0,
9.97999E-3,-2.19524E-2,-1.11022E-15,
9.98499E-3,-2.79524E-2,-1.2E+0,
9.98999E-3,-2.19524E-2,4.E-1,
9.995E-3,-2.99524E-2,-4.E-1,
1.E-2,-2.19524E-2,8.E-1,
